term.id,GADM-AFG,GADM-ALB,GADM-AUT,GADM-COL,GADM-GBR,total-mean-cov (area weighted)
inorganicNitrogenFertiliserUnspecifiedKgN,"(7.91299994, 13.89248775, 10, 4.63082925)","(49.96299973, 37.25730747, 10, 6.97633525)","(80.03300095, 59.68044634, 10, 6.70775065)","(95.1420002, 105.66305142, 10, 35.22101714)","(166.5769989, 124.21612993, 10, 4.82376708)","(80.86043407, 0.74569797)"
inorganicPhosphorusFertiliserUnspecifiedKgP2O5,"(2.48749995, 2.08271913, 4, 0.69423971)","(32.62800026, 24.23976411, 10, 8.07992137)","(20.86100025, 14.1542888, 10, 1.56816084)","(47.11399975, 54.67256529, 10, 18.22418843)","(31.09499989, 21.09810668, 10, 1.0756044)","(25.25828829, 0.6785048)"
inorganicPotassiumFertiliserUnspecifiedKgK2O,"(0.02, 0.01837826, 1, 0.0)","(2.42399999, 7.25496768, 10, 2.41832256)","(24.675, 22.67417877, 10, 1.73277967)","(75.38399963, 80.25108063, 10, 26.75036021)","(43.82500038, 40.27136345, 10, 1.53256826)","(32.57769636, 0.91891302)"
