cycle.id,Grain yield (kg/ha),completeness.products,Nitrogen (kg N),Phosphorus (kg P2O5),Potassium (kg K2O),Magnesium (kg Mg),completeness.fertiliser,pesticideUnspecifiedAi,completeness.pesticidesAntibiotics,waterSourceUnspecified,completeness.water
yv6zpatw0ohz,7800.0,False,220.0,194.65,84.357,0.0,True,23.9942,True,2.0,True
34ist2u8rdrp,-,False,160.0,-,-,-,False,-,False,-,False
sro4pv7u6avy,-,False,160.0,-,-,-,False,-,False,-,False
d4w_i7exehah,-,False,180.0,-,-,-,False,-,False,-,False
kn-x7xvguz6n,9060.0,True,137.0,0.0,0.0,0.0,True,0.85625,True,-,False
dptuyapotht7,5370.0,True,0.0,0.0,0.0,0.0,True,0.0,True,-,False
cgoeykpxritd,5500.0,False,140.0,0.0,0.0,0.0,True,-,False,-,False
t9drvgoevidt,5520.0,True,76.0,0.0,0.0,0.0,True,0.0,True,-,False
c7-4rqggbbzs,7106.0,True,176.0,0.0,102.43589743589743,0.0,True,2.144,True,-,False
pxz7ecy8j8lm,7850.0,True,245.0,0.0,0.0,0.0,True,-,False,-,False
pfoyqva7hvi_,9006.0,True,300.0,0.0,102.43589743589743,0.0,True,0.0,True,-,False
_tlw0wpiu8xm,4240.0,True,0.0,0.0,0.0,0.0,True,-,False,-,False
ow1l5eui_tgs,5623.0,True,225.0,0.0,96.41025641025641,0.0,True,0.0,True,-,False
pyotzbjlimyp,8710.0,True,288.0,0.0,0.0,0.0,True,-,False,-,False
1xt0sayulkgn,9770.0,True,240.0,0.0,0.0,0.0,True,0.0,True,0.0,True
jaka98pod1od,5200.0,True,140.0,-,-,-,False,-,False,-,False
mlwlrdz99dpf,9480.0,True,220.5,0.0,0.0,0.0,True,30.0,True,0.0,True
d5fyxg3z_wsk,9430.0,True,140.0,-,-,-,False,-,False,-,False
7o8kumfwpgbi,10020.0,True,180.0,-,-,-,False,0.1,False,-,False
ieghdbxn-xoz,7920.0,True,140.0,-,-,-,False,0.05,False,-,False
zfy7cz65q1kv,6790.0,True,140.0,-,-,-,False,-,False,-,False
p9nmjfy6scfa,4810.0,True,48.0,114.8,511.3,0.0,True,-,False,0.0,True
k37ip99r2gyf,8530.0,True,144.0,202.9,889.8,0.0,True,-,False,0.0,True
z1qzynxoh12q,8420.0,True,140.0,-,-,-,False,-,False,-,False
nzoij8pfmcn5,-,False,100.0,-,-,-,False,-,False,-,False
ssoct6ugzoa_,9110.0,True,288.0,219.6,1018.0,0.0,True,-,False,0.0,True
g7c2y1e0s17a,5780.0,True,180.0,0.0,0.0,0.0,True,0.0,True,0.0,True
kc0maguuoukb,7700.0,True,80.0,-,-,-,False,-,False,-,False
_ovqkhou2rbd,4210.0,True,40.0,-,-,-,False,-,False,-,False
nootrkr07din,10140.0,True,180.0,-,-,-,False,0.1,False,-,False
rzej2y597tvx,6820.0,True,180.0,-,-,-,False,-,False,-,False
v9txpuzbbkxe,10300.0,True,117.0,0.0,0.0,0.0,True,1.375,True,-,False
gbvzoc7nljfn,9340.0,True,148.0,-,-,-,False,0.03075,True,-,False
chsdgxwtw9q1,7620.0,True,144.0,-,-,-,False,0.03326,True,-,False
pkktj4sxn9dw,7036.0,True,132.0,0.0,102.43589743589743,0.0,True,0.0,True,-,False
84nkjfhkxemd,8090.0,True,117.0,-,-,-,False,0.019710000000000002,True,-,False
glp6-ku_odr1,8550.0,True,120.0,-,-,-,False,0.02017,True,-,False
7wnwrytjydj8,3876.6666666666665,True,48.0,0.0,0.0,0.0,True,-,False,-,False
ekrhwdnrcvrr,8140.0,True,115.0,-,-,-,False,0.04255,True,-,False
lf7jmrppda1a,-,False,100.0,-,-,-,False,0.1,False,-,False
9fkrermyvep2,6460.0,True,100.0,125.0,71.0,0.0,True,-,False,-,False
0wuttcdwxabr,6770.0,True,260.0,125.0,71.0,0.0,True,-,False,-,False
gwog4isi8ptf,10590.0,True,340.0,0.0,44.0,0.0,True,-,False,-,False
htlceec2vw9j,8340.0,True,40.0,0.0,44.0,0.0,True,0.08695652173913043,False,-,False
gp-v6idk7zqm,4000.0,True,40.0,0.0,39.0,0.0,True,0.08695652173913043,False,-,False
go6fejrtyhhx,6720.0,True,160.0,0.0,39.0,0.0,True,0.34782608695652173,False,-,False
vy0p4odtbyn5,7630.0,True,260.0,0.0,39.0,0.0,True,0.5652173913043478,False,-,False
6pwpreagj_d6,3980.0,True,40.0,0.0,39.0,0.0,True,-,False,-,False
tczyhwxpwjbz,5720.0,True,100.0,0.0,39.0,0.0,True,-,False,-,False
hgn6sgozp8of,6830.0,True,160.0,0.0,39.0,0.0,True,0.34782608695652173,False,-,False
pzh08-gs8psb,5610.0,True,100.0,0.0,39.0,0.0,True,0.21739130434782605,False,-,False
a-wpmqh5y46w,4680.0,True,0.0,0.0,0.0,0.0,True,-,False,-,False
bvy2cwjsnmpt,9110.0,True,260.0,0.0,0.0,0.0,True,0.5652173913043478,False,-,False
fuuf5effz5cn,6650.0,True,40.0,0.0,0.0,0.0,True,-,False,-,False
11fv2tjlvhdc,7440.0,True,160.0,0.0,0.0,0.0,True,-,False,-,False
dci671q4363-,9340.0,True,340.0,0.0,0.0,0.0,True,-,False,-,False
ugwjl9xkv0vl,8520.0,True,100.0,0.0,0.0,0.0,True,0.21739130434782605,False,-,False
t5fmrxtchfan,8850.0,True,260.0,0.0,0.0,0.0,True,-,False,-,False
st-iv_2qtn3b,9010.0,True,340.0,0.0,0.0,0.0,True,-,False,-,False
osb_4sihuhsr,9250.0,True,160.0,0.0,0.0,0.0,True,0.34782608695652173,False,-,False
_f_zqv90puvf,6650.0,True,40.0,0.0,0.0,0.0,True,-,False,-,False
hg0kmkwfwrg4,9780.0,True,160.0,0.0,0.0,0.0,True,-,False,-,False
0pxgqk6jf-dw,10460.0,True,340.0,0.0,0.0,0.0,True,0.7391304347826086,False,-,False
gwifesrishby,8520.0,True,220.0,0.0,31.0,0.0,True,-,False,-,False
pfncxi4bmftk,8680.0,True,340.0,0.0,31.0,0.0,True,-,False,-,False
hp0v61hwhngw,4050.0,True,40.0,0.0,31.0,0.0,True,0.043478260869565216,False,-,False
wqnexutv8mvc,9750.0,True,220.0,0.0,31.0,0.0,True,0.23913043478260868,False,-,False
ghaafrfjpa2p,7130.0,True,260.0,0.0,31.0,0.0,True,0.2826086956521739,False,-,False
qkghe-9ywe4n,3650.0,True,0.0,70.0,50.0,0.0,True,-,False,-,False
a4jgy8znwwnp,9200.0,True,340.0,70.0,50.0,0.0,True,-,False,-,False
3hbsybpmj4cw,4670.0,True,40.0,70.0,50.0,0.0,True,0.043478260869565216,False,-,False
zfs7aktz_x1f,9460.0,True,160.0,95.0,0.0,0.0,True,-,False,-,False
9gbji4_pkk1o,9230.0,True,100.0,95.0,0.0,0.0,True,-,False,-,False
ba1oznh0y9ya,9400.0,True,260.0,95.0,0.0,0.0,True,-,False,-,False
cprnrxgyofrd,9570.0,True,340.0,95.0,0.0,0.0,True,-,False,-,False
i3rg7v9begw5,9200.0,True,100.0,95.0,0.0,0.0,True,0.10869565217391303,False,-,False
jzpaor1cefh2,10100.0,True,220.0,0.0,0.0,0.0,True,-,False,-,False
teqsvkrracuh,9330.0,True,160.0,0.0,0.0,0.0,True,-,False,-,False
esu-lqtk_5yq,10590.0,True,260.0,0.0,0.0,0.0,True,-,False,-,False
hm6-gp7x3cpp,10400.0,True,340.0,0.0,0.0,0.0,True,-,False,-,False
illydujrf7ug,5710.0,True,40.0,0.0,0.0,0.0,True,0.043478260869565216,False,-,False
r2l1b7csoplo,7840.0,True,100.0,0.0,0.0,0.0,True,0.10869565217391303,False,-,False
mrkdocvoqvci,8210.0,True,160.0,0.0,0.0,0.0,True,-,False,-,False
c_hpnrjjuh3z,9860.0,True,260.0,0.0,0.0,0.0,True,-,False,-,False
f0wert6y-54i,10300.0,True,340.0,0.0,0.0,0.0,True,-,False,-,False
nmcdxv2nle6f,5420.0,True,40.0,0.0,0.0,0.0,True,0.043478260869565216,False,-,False
wuajrzvk4t0b,3605.0,True,-,-,-,-,False,0.0,False,-,False
h_cbuicp5kva,7725.0,False,-,-,-,-,False,-,False,-,False
mfejtgnizg0v,-,False,220.0,-,-,-,False,-,False,-,False
l5yh3sqxeasi,-,False,220.0,-,-,-,False,-,False,-,False
rxxd9mwfhbo6,-,False,-,-,-,-,False,-,False,-,False
ojhz1owfe6es,-,False,60.0,-,-,-,False,-,False,-,False
a6u5x9ceyvmh,-,False,150.0,-,-,-,False,-,False,-,False
pnrro0lv2hzn,-,False,100.0,-,-,-,False,-,False,-,False
t_8uhprfu6z2,-,False,100.0,-,-,-,False,-,False,-,False
ygrqblqunplf,-,False,100.0,-,-,-,False,0.1,False,-,False
ctyntx2zuvcd,-,False,100.0,-,-,-,False,0.1,False,-,False
fcczotjjdmef,3950.0,True,0.0,0.0,0.0,0.0,True,0.0,True,0.0,True
3aiigtwjemuu,-,False,100.0,-,-,-,False,0.1,False,-,False
ubxke62lid1x,-,False,100.0,-,-,-,False,-,False,-,False
jwybtoyq8r28,4190.0,True,0.0,125.0,71.0,0.0,True,-,False,-,False
ezf1cvwtzxuu,6870.0,True,100.0,125.0,71.0,0.0,True,-,False,-,False
hnykg0pnlqml,5340.0,True,40.0,125.0,71.0,0.0,True,-,False,-,False
siap8kht3it_,4440.0,True,40.0,125.0,71.0,0.0,True,-,False,-,False
uxr9wv6rd-jf,8310.0,True,220.0,125.0,71.0,0.0,True,-,False,-,False
aj6cjlkk_olh,4520.0,True,40.0,125.0,71.0,0.0,True,-,False,-,False
hguusazltm0s,7790.0,True,220.0,125.0,71.0,0.0,True,-,False,-,False
umtw-jspv0bt,7770.0,True,160.0,125.0,71.0,0.0,True,0.34782608695652173,False,-,False
lau47voflcxv,7610.0,True,260.0,125.0,71.0,0.0,True,0.5652173913043478,False,-,False
igyqnby1sebo,6860.0,True,0.0,0.0,44.0,0.0,True,-,False,-,False
6v0cje5dde_j,9410.0,True,40.0,0.0,44.0,0.0,True,-,False,-,False
6nwz4bmrjf_2,11090.0,True,160.0,0.0,44.0,0.0,True,-,False,-,False
imcltqniiwag,11290.0,True,260.0,0.0,44.0,0.0,True,-,False,-,False
cjgnz3zqfnxq,11710.0,True,340.0,0.0,44.0,0.0,True,-,False,-,False
_i89s2ruz6sn,10640.0,True,160.0,0.0,44.0,0.0,True,0.34782608695652173,False,-,False
pdrjagac28bk,11630.0,True,260.0,0.0,44.0,0.0,True,0.5652173913043478,False,-,False
wzqgcyeti2kj,11410.0,True,340.0,0.0,44.0,0.0,True,0.7391304347826086,False,-,False
2x2ekdy_i8bo,7510.0,True,340.0,0.0,39.0,0.0,True,-,False,-,False
vgaau7bj-7nr,7300.0,True,260.0,0.0,39.0,0.0,True,0.5652173913043478,False,-,False
ennsqrabatdp,6390.0,True,160.0,0.0,39.0,0.0,True,-,False,-,False
b8pl2p7to8s8,7220.0,True,220.0,0.0,39.0,0.0,True,-,False,-,False
crplexptu287,9440.0,True,100.0,0.0,0.0,0.0,True,0.21739130434782605,False,-,False
o79ys63bhoo1,9520.0,True,260.0,0.0,0.0,0.0,True,-,False,-,False
u7bkwmvdshjv,8580.0,True,260.0,0.0,0.0,0.0,True,0.5652173913043478,False,-,False
mw3lb1jiqvin,10260.0,True,220.0,0.0,0.0,0.0,True,-,False,-,False
gns3c3me2mrn,9200.0,True,340.0,0.0,0.0,0.0,True,-,False,-,False
16kldm1eceeo,10050.0,True,260.0,0.0,0.0,0.0,True,-,False,-,False
_sjju-yiaroy,8540.0,True,100.0,0.0,0.0,0.0,True,0.21739130434782605,False,-,False
40vp-btg-csm,8470.0,True,100.0,0.0,0.0,0.0,True,-,False,-,False
yvih4kf5kmma,9430.0,True,340.0,0.0,0.0,0.0,True,0.7391304347826086,False,-,False
_mpaqkhen4uq,4040.0,True,0.0,0.0,31.0,0.0,True,-,False,-,False
801vkufedrbd,6800.0,True,40.0,0.0,0.0,0.0,True,0.08695652173913043,False,-,False
lyoevb_bmyxv,6440.0,True,100.0,0.0,31.0,0.0,True,-,False,-,False
uelc6ifw3ur0,7110.0,True,220.0,0.0,31.0,0.0,True,-,False,-,False
wu2mukbze1px,9200.0,True,260.0,0.0,31.0,0.0,True,-,False,-,False
oxs7jbbyfbl6,7100.0,True,100.0,0.0,31.0,0.0,True,0.10869565217391303,False,-,False
tryha4xfbqpr,8740.0,True,260.0,0.0,31.0,0.0,True,0.2826086956521739,False,-,False
bnel_xdpynq6,4630.0,True,12.0,0.0,0.0,0.0,True,0.0,True,-,False
8qukp7ne2hgj,5000.0,False,70.0,0.0,0.0,0.0,True,-,False,-,False
pa3kferwfdco,5790.0,True,250.0,0.0,0.0,0.0,True,-,False,-,False
z-ipj-z-mlvj,8423.0,True,217.0,0.0,96.41025641025641,0.0,True,0.0,True,-,False
hmvmlo-e2ppp,9480.0,True,225.0,0.0,102.43589743589743,0.0,True,0.0,True,-,False
b5zoqvvff8p1,7756.666666666667,True,258.0,0.0,0.0,0.0,True,-,False,-,False
xvemocg6mhas,-,False,207.0,0.0,0.0,0.0,True,-,False,-,False
tlsuoip8ehc-,6500.0,True,277.0,0.0,0.0,0.0,True,-,False,-,False
azaewvgcmx5m,4240.0,True,0.0,0.0,0.0,0.0,True,-,False,-,False
rvkdvovcn_hz,8903.333333333334,True,240.0,0.0,0.0,0.0,True,-,False,-,False
bb-t1ypw5r33,-,False,216.0,0.0,0.0,0.0,True,-,False,-,False
vdx2pbqjfpty,5736.666666666667,True,122.0,0.0,0.0,0.0,True,-,False,-,False
rvw0m0e4v2ow,5750.0,True,300.0,0.0,0.0,0.0,True,0.0,True,0.0,True
vbgdq2km3ouj,4690.0,True,180.0,0.0,0.0,0.0,True,0.0,True,0.0,True
b5fuwnzlilsf,10270.0,True,180.0,-,-,-,False,-,False,-,False
kztebp4eckj0,8500.0,True,167.6,19.5,35.4,5.34,True,9.473268699999998,True,0.0,True
0g1tliwkguf7,9420.0,True,140.0,-,-,-,False,-,False,-,False
kvav_mrdnci_,9140.0,True,140.0,-,-,-,False,0.05,False,-,False
wlnz1tvhithc,-,False,120.0,-,-,-,False,-,False,-,False
kbqr8y0dzi_z,1910.0,True,0.0,0.0,0.0,0.0,True,0.0,True,0.0,True
yz8guxoubmti,3270.0,True,40.0,-,-,-,False,-,False,-,False
m7v6h-sotxg3,8880.0,True,80.0,-,-,-,False,-,False,-,False
c9za_yyrxnqu,5990.0,True,40.0,-,-,-,False,-,False,-,False
9ogxejwywwje,5640.0,True,40.0,-,-,-,False,-,False,-,False
iy2a8z0_bjkm,5420.0,True,180.0,-,-,-,False,0.1,False,-,False
yp3tf4wqqifc,9260.0,True,140.0,-,-,-,False,-,False,-,False
y2xqwwy9bfpj,6830.0,True,180.0,-,-,-,False,-,False,-,False
e4hbqfghm_gx,9220.0,True,260.0,70.0,50.0,0.0,True,-,False,-,False
dvwscifj8i7a,9260.0,True,340.0,70.0,50.0,0.0,True,-,False,-,False
p88ty4fj0ky4,8750.0,True,220.0,70.0,50.0,0.0,True,-,False,-,False
jqey8cf2rkgo,4590.0,True,40.0,70.0,50.0,0.0,True,-,False,-,False
8b-gdbnmaksy,9300.0,True,220.0,70.0,50.0,0.0,True,0.23913043478260868,False,-,False
7dqbq3pu6hnv,8240.0,True,160.0,70.0,50.0,0.0,True,-,False,-,False
kvhfxfososfo,8890.0,True,220.0,70.0,50.0,0.0,True,0.23913043478260868,False,-,False
1kos69koq53q,9280.0,True,260.0,70.0,50.0,0.0,True,0.2826086956521739,False,-,False
n7wankinlg_h,9480.0,True,340.0,70.0,50.0,0.0,True,0.3695652173913043,False,-,False
_w6ys1zkx-bb,9350.0,True,100.0,95.0,0.0,0.0,True,0.10869565217391303,False,-,False
tpkl_hk1ouvm,9680.0,True,220.0,95.0,0.0,0.0,True,0.23913043478260868,False,-,False
mwqiefqxjgyx,9640.0,True,260.0,95.0,0.0,0.0,True,0.2826086956521739,False,-,False
tgaqzpqo1wrl,9700.0,True,340.0,95.0,0.0,0.0,True,0.3695652173913043,False,-,False
fgas9bsiyi6b,9110.0,True,160.0,95.0,0.0,0.0,True,-,False,-,False
nym6oal6mnn6,9440.0,True,260.0,95.0,0.0,0.0,True,-,False,-,False
xo4oh_7afxiv,8500.0,True,40.0,95.0,0.0,0.0,True,0.043478260869565216,False,-,False
y3f6xmfp6pzv,9780.0,True,220.0,0.0,0.0,0.0,True,0.23913043478260868,False,-,False
kjzcoo7sywz0,-,False,220.0,-,-,-,False,-,False,-,False
8fnxfo1hrnql,-,False,220.0,-,-,-,False,-,False,-,False
ciobtueu_frm,-,False,-,-,-,-,False,-,False,-,False
_uf-c0inbgys,-,False,180.0,-,-,-,False,-,False,-,False
ngqpulcibhqt,-,False,220.0,-,-,-,False,-,False,-,False
q68czvbmumk_,-,False,-,-,-,-,False,-,False,-,False
ejdnxtivmnbc,-,False,220.0,-,-,-,False,-,False,-,False
kuxrmuyoi9xr,6790.0,False,350.0,0.0,0.0,0.0,True,-,False,-,False
zxqksbkellpf,6360.0,False,280.0,0.0,0.0,0.0,True,-,False,-,False
ucnmiqpqlo8k,5560.0,True,53.0,0.0,0.0,0.0,True,0.0,True,-,False
gup5qvns2rmx,8000.0,True,86.0,0.0,0.0,0.0,True,1.625,True,-,False
qiamvnkto2zk,7832.0,True,176.0,0.0,102.43589743589743,0.0,True,0.0,True,-,False
7sqirbs6a9jk,8960.0,True,121.0,-,-,-,False,0.015179999999999999,True,-,False
obwu62adcrlc,5704.0,True,75.0,0.0,102.43589743589743,0.0,True,0.0,True,-,False
skhviiz_7wl5,6728.333333333333,True,98.0,0.0,0.0,0.0,True,-,False,-,False
uwq9egisc18a,-,False,181.0,0.0,0.0,0.0,True,-,False,-,False
nn8jnfclqfdd,10560.0,True,300.0,0.0,0.0,0.0,True,0.0,True,0.0,True
z5oz7vcj6ues,5700.0,True,180.0,0.0,0.0,0.0,True,0.0,True,0.0,True
oxss3genh-fb,9360.0,True,240.0,0.0,0.0,0.0,True,0.0,True,0.0,True
unvrj7iwka3_,8800.0,True,187.7,27.2,49.4,7.4399999999999995,True,9.473268699999998,True,0.0,True
z7zjuwpkqsc_,8400.0,True,140.0,-,-,-,False,0.1,False,-,False
w9agqjcmcmk7,10100.0,True,180.0,-,-,-,False,-,False,-,False
1xc081-e-fnr,8560.0,True,140.0,-,-,-,False,-,False,-,False
ziohsr5qjflo,8780.0,True,140.0,-,-,-,False,-,False,-,False
tsq4caqqfpu0,7680.0,True,340.0,125.0,71.0,0.0,True,-,False,-,False
oubkzgm5xt6y,4610.0,True,40.0,125.0,71.0,0.0,True,0.08695652173913043,False,-,False
riurhr-_vugl,7980.0,True,220.0,125.0,71.0,0.0,True,0.47826086956521735,False,-,False
igwgcca6fgom,6840.0,True,100.0,125.0,71.0,0.0,True,0.21739130434782605,False,-,False
srsvhop1apks,8160.0,True,220.0,125.0,71.0,0.0,True,0.47826086956521735,False,-,False
rsssokme95dy,10300.0,True,100.0,0.0,44.0,0.0,True,-,False,-,False
9g_hfffccj8h,10800.0,True,260.0,0.0,44.0,0.0,True,-,False,-,False
h8zgdp1nqwky,11100.0,True,220.0,0.0,44.0,0.0,True,-,False,-,False
hqpxtqeybvlc,11290.0,True,340.0,0.0,44.0,0.0,True,-,False,-,False
c4vf7u26iwrz,10660.0,True,100.0,0.0,44.0,0.0,True,0.21739130434782605,False,-,False
tuocv_8hprs2,11270.0,True,160.0,0.0,44.0,0.0,True,0.34782608695652173,False,-,False
lwlh8io-wdki,11000.0,True,220.0,0.0,44.0,0.0,True,-,False,-,False
cfuizriy60ye,2840.0,True,0.0,0.0,39.0,0.0,True,-,False,-,False
uue95qr1cfvc,5980.0,True,100.0,0.0,39.0,0.0,True,0.21739130434782605,False,-,False
o9rduqt2_4bx,7050.0,True,220.0,0.0,39.0,0.0,True,0.47826086956521735,False,-,False
_v708yeyz7tj,6640.0,True,160.0,0.0,39.0,0.0,True,-,False,-,False
ss-xhktr8ihb,7420.0,True,260.0,0.0,39.0,0.0,True,-,False,-,False
l_y5wyk8ultw,5930.0,True,100.0,0.0,39.0,0.0,True,0.21739130434782605,False,-,False
j96xe1wxsfyk,3710.0,True,40.0,0.0,39.0,0.0,True,-,False,-,False
1tayonbwpfua,5550.0,True,100.0,0.0,39.0,0.0,True,-,False,-,False
znlvjd34q9rx,3690.0,True,40.0,0.0,39.0,0.0,True,0.08695652173913043,False,-,False
c7yggmluyktn,6510.0,True,160.0,0.0,39.0,0.0,True,0.34782608695652173,False,-,False
sklelkh9r9s5,8930.0,True,220.0,0.0,0.0,0.0,True,0.47826086956521735,False,-,False
tv3ik7tifyfp,8590.0,True,220.0,0.0,0.0,0.0,True,-,False,-,False
eoywyo-yj_j_,6250.0,True,40.0,0.0,0.0,0.0,True,0.08695652173913043,False,-,False
8hai0zgigrag,9360.0,True,340.0,0.0,0.0,0.0,True,0.7391304347826086,False,-,False
u28unzjmuvxz,9960.0,True,220.0,0.0,0.0,0.0,True,-,False,-,False
kpeb6de1cmkz,10190.0,True,340.0,0.0,0.0,0.0,True,-,False,-,False
esijeecypjoz,9540.0,True,160.0,0.0,0.0,0.0,True,-,False,-,False
ehw_nugy-j06,10280.0,True,260.0,0.0,0.0,0.0,True,-,False,-,False
yswin5y-e9_s,9530.0,True,340.0,0.0,0.0,0.0,True,-,False,-,False
povyb14r4vrf,9410.0,True,160.0,0.0,0.0,0.0,True,0.34782608695652173,False,-,False
4my_jiocc2v8,7630.0,True,260.0,0.0,31.0,0.0,True,-,False,-,False
ueitjifqzn7k,8310.0,True,340.0,0.0,31.0,0.0,True,-,False,-,False
5nuvqyimmfen,7950.0,True,160.0,0.0,31.0,0.0,True,0.17391304347826086,False,-,False
xuqnsap5h3cv,8260.0,True,100.0,0.0,31.0,0.0,True,-,False,-,False
klxqcgxaioqt,9250.0,True,220.0,0.0,31.0,0.0,True,-,False,-,False
2ynfqgp_gkae,8160.0,True,260.0,0.0,31.0,0.0,True,-,False,-,False
ud9qq-ssh53g,5650.0,True,100.0,0.0,31.0,0.0,True,0.10869565217391303,False,-,False
wqykgozfdivp,8550.0,True,160.0,0.0,31.0,0.0,True,0.17391304347826086,False,-,False
qfvbq-o2x4ss,8750.0,True,220.0,70.0,50.0,0.0,True,-,False,-,False
aqbnyoexw3ba,7960.0,True,160.0,70.0,50.0,0.0,True,-,False,-,False
3q6hvhyaub53,5150.0,True,40.0,70.0,50.0,0.0,True,0.043478260869565216,False,-,False
xxexhpl7ez4e,8820.0,True,160.0,70.0,50.0,0.0,True,0.17391304347826086,False,-,False
hxbk3m7nv4gb,7900.0,True,160.0,70.0,50.0,0.0,True,0.17391304347826086,False,-,False
q1fnnxx8tag4,9330.0,True,100.0,95.0,0.0,0.0,True,-,False,-,False
jietkc03iasw,9400.0,True,340.0,95.0,0.0,0.0,True,-,False,-,False
qnopkvir7nbz,8490.0,True,40.0,95.0,0.0,0.0,True,-,False,-,False
nhgqdpjeterd,9740.0,True,220.0,95.0,0.0,0.0,True,-,False,-,False
n40piapzl1ur,9130.0,True,160.0,95.0,0.0,0.0,True,0.17391304347826086,False,-,False
tpguvqightx3,9740.0,True,260.0,95.0,0.0,0.0,True,0.2826086956521739,False,-,False
rppkvrofqawh,10390.0,True,340.0,70.0,50.0,0.0,True,0.3695652173913043,False,-,False
l-odptbscbyt,10830.0,True,260.0,0.0,0.0,0.0,True,-,False,-,False
uyfrbsyjqjod,5240.0,True,40.0,0.0,0.0,0.0,True,-,False,-,False
huvzp7lbn0hd,7990.0,True,100.0,0.0,0.0,0.0,True,-,False,-,False
kqghalbjterp,9430.0,True,160.0,0.0,0.0,0.0,True,0.17391304347826086,False,-,False
nwn5qa4ain7p,7190.0,True,100.0,0.0,0.0,0.0,True,-,False,-,False
zbkoiuk1iwrl,9230.0,True,220.0,0.0,0.0,0.0,True,-,False,-,False
vjri9hs_6z0b,9410.0,True,260.0,0.0,0.0,0.0,True,0.2826086956521739,False,-,False
gm3jlru6uy4b,-,False,180.0,-,-,-,False,-,False,-,False
znc0waywkbmm,-,False,220.0,-,-,-,False,-,False,-,False
lfjy0dagzzkk,7050.0,True,277.0,0.0,0.0,0.0,True,-,False,-,False
91_yq1wjcl_o,-,False,245.0,0.0,0.0,0.0,True,-,False,-,False
rie0a4qecenb,6630.0,True,140.0,-,-,-,False,0.05,False,-,False
bsxdmbmhrdfm,9320.0,True,140.0,-,-,-,False,-,False,-,False
hwz31ysp2frh,9170.0,True,140.0,-,-,-,False,0.05,False,-,False
1alo41bwfuhg,9580.0,True,140.0,-,-,-,False,-,False,-,False
cjoowy-go7c8,8760.0,True,140.0,-,-,-,False,0.05,False,-,False
ijvqurwotwda,9270.0,True,240.0,221.5,991.6,0.0,True,-,False,0.0,True
rzemw8_1zhcv,-,False,100.0,-,-,-,False,0.1,False,-,False
rw70u1hsafcw,-,False,100.0,-,-,-,False,0.1,False,-,False
lip7fjq9memm,-,False,100.0,-,-,-,False,-,False,-,False
xdcp_d6noav3,3940.0,True,60.0,0.0,0.0,0.0,True,0.0,True,0.0,True
8lycdtvo69sl,10280.0,True,180.0,0.0,0.0,0.0,True,0.0,True,0.0,True
8w-cpgar55jl,6230.0,True,60.0,0.0,0.0,0.0,True,0.0,True,0.0,True
wvnymmyy-hzh,-,False,100.0,-,-,-,False,0.1,False,-,False
8hqr_ymxjimm,5180.0,True,80.0,-,-,-,False,-,False,-,False
93m2urvdtazr,5750.0,True,140.0,-,-,-,False,0.1,False,-,False
iekyxfldqgju,5380.0,True,140.0,-,-,-,False,-,False,-,False
bleabld76fm_,9740.0,True,180.0,-,-,-,False,-,False,-,False
qlzmcbo0i_5n,9860.0,True,180.0,-,-,-,False,-,False,-,False
igpy49su4dza,10110.0,True,140.0,-,-,-,False,0.1,False,-,False
gfnlecrqnxrp,5600.0,True,1.332,0.0,0.0,0.0,True,17.099999999999998,True,0.0,True
pqka71qgu619,8100.0,True,140.0,0.0,0.0,0.0,True,89.48577,True,0.0,True
k2bj0nkqosuy,8300.0,True,190.0,60.0,74.0,0.0,True,-,False,-,False
k830gfeduqr4,-,False,160.0,-,-,-,False,-,False,-,False
qqdjdlxsu73v,-,False,220.0,-,-,-,False,-,False,-,False
aspiuznfmedr,-,False,220.0,-,-,-,False,-,False,-,False
4g-7glod4gnn,9730.0,True,146.0,0.0,0.0,0.0,True,0.0,True,-,False
ap56uv2bp8er,8480.0,True,120.0,0.0,0.0,0.0,True,0.0,True,0.0,True
7n8ehuvifcqr,5220.0,True,120.0,0.0,0.0,0.0,True,0.0,True,0.0,True
wuckmy1rgl_7,7620.0,True,40.0,-,-,-,False,-,False,-,False
h5sbd1pl-7pi,10710.0,True,180.0,-,-,-,False,-,False,-,False
yjd1-f9nvpei,6690.0,True,180.0,-,-,-,False,-,False,-,False
4dzw5u1dsser,6720.0,True,180.0,-,-,-,False,0.1,False,-,False
bnlco9xnxqbj,9730.0,True,140.0,-,-,-,False,-,False,-,False
8ogo0y8rlkam,6770.0,True,180.0,-,-,-,False,0.1,False,-,False
ye52-_0ntx7u,5520.0,True,140.0,-,-,-,False,-,False,-,False
dsnb5ijk2ae1,8300.0,True,220.0,125.0,71.0,0.0,True,-,False,-,False
bwnwetfmrrbo,7380.0,True,340.0,125.0,71.0,0.0,True,-,False,-,False
dr2j_xoy5bld,7010.0,True,100.0,125.0,71.0,0.0,True,0.21739130434782605,False,-,False
xi-jsdajk3ed,8100.0,True,260.0,125.0,71.0,0.0,True,0.5652173913043478,False,-,False
erwkmqultfb_,7330.0,True,340.0,125.0,71.0,0.0,True,0.7391304347826086,False,-,False
zgxiddjxasoh,7390.0,True,160.0,125.0,71.0,0.0,True,-,False,-,False
fg03xj8fdfkq,6200.0,True,260.0,125.0,71.0,0.0,True,-,False,-,False
1dopqesmxq-f,8370.0,True,340.0,125.0,71.0,0.0,True,-,False,-,False
wdnhqblzkuxb,4820.0,True,40.0,125.0,71.0,0.0,True,0.08695652173913043,False,-,False
i5ap2zaexvzn,7270.0,True,340.0,125.0,71.0,0.0,True,0.7391304347826086,False,-,False
pnfzspvv05jw,11250.0,True,220.0,0.0,44.0,0.0,True,-,False,-,False
t-mjr1pwvitv,9490.0,True,40.0,0.0,44.0,0.0,True,-,False,-,False
phjkdhozqm4l,10640.0,True,100.0,0.0,44.0,0.0,True,-,False,-,False
kwrdgkyvyhfu,10530.0,True,260.0,0.0,44.0,0.0,True,0.5652173913043478,False,-,False
lw3nrcepymg_,11020.0,True,340.0,0.0,44.0,0.0,True,0.7391304347826086,False,-,False
6wy78qe_hjah,7600.0,True,40.0,0.0,44.0,0.0,True,-,False,-,False
8v5hhc4gyety,10860.0,True,160.0,0.0,44.0,0.0,True,-,False,-,False
bh4hr1aro6i2,10010.0,True,100.0,0.0,44.0,0.0,True,0.21739130434782605,False,-,False
e0d2riu0qeg7,11410.0,True,220.0,0.0,44.0,0.0,True,0.47826086956521735,False,-,False
hee8zqpqdivv,7180.0,True,340.0,0.0,39.0,0.0,True,0.7391304347826086,False,-,False
5yvmqzky-vob,7450.0,True,220.0,0.0,39.0,0.0,True,-,False,-,False
nsapzyuhvc4g,4160.0,True,40.0,0.0,39.0,0.0,True,0.08695652173913043,False,-,False
yol5nosx_rws,7380.0,True,340.0,0.0,39.0,0.0,True,0.7391304347826086,False,-,False
zo07akal2qz4,7360.0,True,220.0,0.0,39.0,0.0,True,0.47826086956521735,False,-,False
mt4xltgkw0_s,7290.0,True,260.0,0.0,39.0,0.0,True,0.5652173913043478,False,-,False
r3mzbrdymwrn,7350.0,True,340.0,0.0,39.0,0.0,True,0.7391304347826086,False,-,False
b6pc9uy3-e9k,6870.0,True,40.0,0.0,0.0,0.0,True,0.08695652173913043,False,-,False
pfftifhrwxfq,9050.0,True,340.0,0.0,0.0,0.0,True,0.7391304347826086,False,-,False
sljg9b8tshos,8500.0,True,100.0,0.0,0.0,0.0,True,-,False,-,False
hwtvczyaozgz,8370.0,True,160.0,0.0,0.0,0.0,True,0.34782608695652173,False,-,False
qqnb5eiv1qhd,8570.0,True,340.0,0.0,0.0,0.0,True,0.7391304347826086,False,-,False
vnzy390jnkgi,7220.0,True,100.0,0.0,0.0,0.0,True,-,False,-,False
7lbfojvme4ud,8300.0,True,100.0,0.0,0.0,0.0,True,-,False,-,False
jefvqfy9nlfp,9860.0,True,160.0,0.0,0.0,0.0,True,-,False,-,False
jsfpp2jcn1gc,10480.0,True,260.0,0.0,0.0,0.0,True,-,False,-,False
qevlkfkdwpo5,8370.0,True,100.0,0.0,0.0,0.0,True,-,False,-,False
if2mgz8dqzvq,10320.0,True,220.0,0.0,0.0,0.0,True,0.47826086956521735,False,-,False
bs98qomneu8y,8260.0,True,160.0,0.0,31.0,0.0,True,-,False,-,False
inkd4oseuzho,3430.0,True,40.0,0.0,31.0,0.0,True,-,False,-,False
zz2q6sx_3ygs,5470.0,True,40.0,0.0,31.0,0.0,True,0.043478260869565216,False,-,False
xsxagdgstap0,7390.0,True,100.0,70.0,50.0,0.0,True,-,False,-,False
2addoahzd0kv,6920.0,True,100.0,70.0,50.0,0.0,True,-,False,-,False
whit0m4zl7ig,9440.0,True,340.0,70.0,50.0,0.0,True,-,False,-,False
iaj0jmgjxpjy,7220.0,True,100.0,70.0,50.0,0.0,True,0.10869565217391303,False,-,False
grbqzv3ch4uk,4810.0,True,40.0,70.0,50.0,0.0,True,-,False,-,False
y5hkw0mgxzbs,7030.0,True,100.0,70.0,50.0,0.0,True,-,False,-,False
t21e4pbd4miu,8540.0,True,220.0,70.0,50.0,0.0,True,-,False,-,False
okzxp-kk76-g,8430.0,True,0.0,95.0,0.0,0.0,True,-,False,-,False
6jc03x1ssgn1,9460.0,True,160.0,95.0,0.0,0.0,True,-,False,-,False
j7wtjtpfb63j,9390.0,True,220.0,95.0,0.0,0.0,True,-,False,-,False
u_s9qvctqmyy,8690.0,True,100.0,95.0,0.0,0.0,True,-,False,-,False
wx2-w-a2x_dr,9470.0,True,220.0,95.0,0.0,0.0,True,0.23913043478260868,False,-,False
0fonk7bhxvub,10280.0,True,340.0,0.0,0.0,0.0,True,-,False,-,False
oltn2clocqos,9940.0,True,220.0,0.0,0.0,0.0,True,-,False,-,False
7f4o2si4ekf4,10700.0,True,340.0,0.0,0.0,0.0,True,0.3695652173913043,False,-,False
md5_sve_mx4g,5050.0,True,40.0,0.0,0.0,0.0,True,-,False,-,False
nl0jike5h6xn,7540.0,True,100.0,0.0,0.0,0.0,True,0.10869565217391303,False,-,False
dr4dyelflz4u,9090.0,True,160.0,0.0,0.0,0.0,True,0.17391304347826086,False,-,False
mnxm7yebdiyl,9170.0,True,166.0,-,-,-,False,0.02479,True,-,False
r5ww-ttrklqx,6100.0,True,0.0,0.0,96.41025641025641,0.0,True,0.0,True,-,False
hibxyqs6eefh,6910.0,True,117.0,-,-,-,False,0.02454,True,-,False
k_zuhwxagfiv,7240.0,True,129.0,-,-,-,False,0.02958,True,-,False
znaa39xrdpx-,7846.0,True,217.0,0.0,96.41025641025641,0.0,True,0.0,True,-,False
b-zvggdq5kmr,8150.0,True,151.0,-,-,-,False,0.04056,True,-,False
fvcj7ulnizhk,8500.0,True,192.0,0.0,0.0,0.0,True,-,False,-,False
mvx6vdsjdxij,9410.0,True,155.0,-,-,-,False,0.0352,True,-,False
sqtjr1okpabo,6736.666666666667,True,235.0,0.0,0.0,0.0,True,-,False,-,False
zhetth2agzzo,8180.0,True,192.0,0.0,0.0,0.0,True,-,False,-,False
zd_tdjv4tsrk,7620.0,True,177.0,0.0,96.41025641025641,0.0,True,0.0,True,-,False
5sak1k0inhlt,10360.0,True,220.5,0.0,0.0,0.0,True,30.0,True,0.0,True
h2f6yle0mq8g,5610.0,True,160.5,0.0,0.0,0.0,True,30.0,True,0.0,True
vdoviaoh0c0w,4350.0,True,160.5,0.0,0.0,0.0,True,30.0,True,0.0,True
sptbbmasyyet,8600.0,True,218.2,0.0,0.0,0.0,True,9.473268699999998,True,0.0,True
cql3fsdbp8j9,10150.0,True,180.0,-,-,-,False,0.1,False,-,False
v1zzasamrq3b,8480.0,True,140.0,-,-,-,False,-,False,-,False
xg1a-uiwwy35,9500.0,True,228.89806629834257,67.57412398921834,50.96685082872928,0.0,True,5.9725414364640885,True,1.5110497237569063,True
r7k_nq-g0r47,9710.0,True,140.0,-,-,-,False,0.05,False,-,False
l6ofybb-0gzo,-,False,90.0,-,-,-,False,-,False,-,False
r2qlip9rie5e,-,False,100.0,-,-,-,False,-,False,-,False
pkkjoft3vtoi,7110.0,True,96.0,169.3,745.0,0.0,True,-,False,0.0,True
yq0m-ywvhprn,9060.0,True,240.0,0.0,0.0,0.0,True,0.0,True,0.0,True
th_sftq30jaz,-,False,160.0,-,-,-,False,-,False,-,False
hs920iudjcc5,-,False,220.0,-,-,-,False,-,False,-,False
rqd5oocccrzc,-,False,180.0,-,-,-,False,-,False,-,False
jzic0ykr_mlx,-,False,160.0,-,-,-,False,-,False,-,False
kpg3w7o9crxy,-,False,-,-,-,-,False,-,False,-,False
ptiaaen6uuwo,8800.0,True,140.0,-,-,-,False,0.05,False,-,False
aurp7bl8wvjq,8600.0,True,218.2,0.0,0.0,0.0,True,9.473268699999998,True,0.0,True
_sfolajl8gaa,6680.0,True,140.0,-,-,-,False,-,False,-,False
e79hihyx1lgc,6250.0,True,140.0,-,-,-,False,-,False,-,False
bpwoitw0p0ha,6600.0,True,140.0,-,-,-,False,0.05,False,-,False
cpswq_rq_qas,2070.0,True,0.0,48.41,203.7,0.0,True,-,False,0.0,True
a-kkzfl5g3ja,9200.0,True,140.0,-,-,-,False,-,False,-,False
f36nswxidpat,9400.0,True,140.0,-,-,-,False,-,False,-,False
gfrpdkfdoxfe,9250.0,True,192.0,219.9,964.8,0.0,True,-,False,0.0,True
4o61zrprkqjr,-,False,30.0,-,-,-,False,-,False,-,False
46uvupo0hyt1,-,False,100.0,-,-,-,False,0.1,False,-,False
cf4mzoppixfb,8200.0,True,160.0,125.0,71.0,0.0,True,-,False,-,False
c3oggt-oazvc,7980.0,True,260.0,125.0,71.0,0.0,True,-,False,-,False
q4tl_qi7aj90,7340.0,True,160.0,125.0,71.0,0.0,True,-,False,-,False
yfy85ovpl-l4,7870.0,True,160.0,125.0,71.0,0.0,True,0.34782608695652173,False,-,False
wv4fs8l-orch,5960.0,True,100.0,125.0,71.0,0.0,True,-,False,-,False
m4vp3uiujoo8,11200.0,True,160.0,0.0,44.0,0.0,True,-,False,-,False
yzzjoksuhwge,11400.0,True,220.0,0.0,44.0,0.0,True,0.47826086956521735,False,-,False
9zx2t7c3hnyj,9190.0,True,100.0,0.0,44.0,0.0,True,-,False,-,False
4iwahbpzdac_,11580.0,True,260.0,0.0,44.0,0.0,True,-,False,-,False
oydtqgmboyam,8020.0,True,40.0,0.0,44.0,0.0,True,0.08695652173913043,False,-,False
xrwv9awgaiuj,7400.0,True,220.0,0.0,39.0,0.0,True,0.47826086956521735,False,-,False
ytnleyxnjvge,7670.0,True,260.0,0.0,39.0,0.0,True,-,False,-,False
7qzpjrqjjpai,7410.0,True,340.0,0.0,39.0,0.0,True,-,False,-,False
fjegsbzo86pv,9550.0,True,160.0,0.0,0.0,0.0,True,0.34782608695652173,False,-,False
a3wcbe3h2nbk,5680.0,True,40.0,0.0,0.0,0.0,True,0.08695652173913043,False,-,False
prsavludstbs,9420.0,True,220.0,0.0,0.0,0.0,True,0.47826086956521735,False,-,False
pmwt3vlxfk_q,5730.0,True,40.0,0.0,0.0,0.0,True,-,False,-,False
yxq8o3c7qvoj,8410.0,True,160.0,0.0,0.0,0.0,True,-,False,-,False
ah3v8juenfeh,9490.0,True,220.0,0.0,0.0,0.0,True,-,False,-,False
hbj0fkn_1yfu,7430.0,True,100.0,0.0,0.0,0.0,True,0.21739130434782605,False,-,False
enotuu-jvfnk,7920.0,True,220.0,0.0,0.0,0.0,True,0.47826086956521735,False,-,False
sgn5s75s0dua,9210.0,True,260.0,0.0,0.0,0.0,True,0.5652173913043478,False,-,False
n5jby6p0jigm,5140.0,True,0.0,0.0,0.0,0.0,True,-,False,-,False
r2mcnvb3k8mb,6650.0,True,40.0,0.0,0.0,0.0,True,-,False,-,False
1fhgchxropta,9770.0,True,160.0,0.0,0.0,0.0,True,0.34782608695652173,False,-,False
ig7vtzfkn_o8,10200.0,True,220.0,0.0,0.0,0.0,True,0.47826086956521735,False,-,False
da9ttxyzjmq1,10050.0,True,260.0,0.0,0.0,0.0,True,0.5652173913043478,False,-,False
_yab0ji1_1z7,6650.0,True,40.0,0.0,0.0,0.0,True,-,False,-,False
nktklechquih,9670.0,True,220.0,0.0,0.0,0.0,True,-,False,-,False
hl_d1daewvvr,6640.0,True,40.0,0.0,0.0,0.0,True,0.08695652173913043,False,-,False
kg0rtfv_owf_,8430.0,True,100.0,0.0,0.0,0.0,True,0.21739130434782605,False,-,False
ch97l5klrt-y,9850.0,True,260.0,0.0,0.0,0.0,True,0.5652173913043478,False,-,False
ygd1stnx9khv,4640.0,True,40.0,0.0,31.0,0.0,True,-,False,-,False
uedsjgvkce0l,5940.0,True,100.0,0.0,31.0,0.0,True,-,False,-,False
jkg46ffeya8z,7600.0,True,160.0,0.0,31.0,0.0,True,-,False,-,False
wyeksokjlnro,7510.0,True,340.0,0.0,31.0,0.0,True,0.3695652173913043,False,-,False
70y4jq62igb7,3610.0,True,40.0,0.0,31.0,0.0,True,-,False,-,False
gttphgkj5-16,9580.0,True,160.0,0.0,31.0,0.0,True,-,False,-,False
yqlwiqkwsozy,9160.0,True,340.0,0.0,31.0,0.0,True,-,False,-,False
mcr35dun5blk,8220.0,True,220.0,0.0,31.0,0.0,True,0.23913043478260868,False,-,False
_rqanmiabn6a,8900.0,True,340.0,0.0,31.0,0.0,True,0.3695652173913043,False,-,False
xqmcabtvq8zg,8370.0,True,160.0,70.0,50.0,0.0,True,-,False,-,False
hgw2d7wvfkov,4660.0,True,40.0,70.0,50.0,0.0,True,-,False,-,False
5udt6fzce0rq,9060.0,True,260.0,70.0,50.0,0.0,True,-,False,-,False
tbvtnnrbcppz,9340.0,True,260.0,70.0,50.0,0.0,True,-,False,-,False
sxxwr3bpqbdd,6540.0,True,100.0,70.0,50.0,0.0,True,0.10869565217391303,False,-,False
i7stnfyxokxl,9160.0,True,40.0,95.0,0.0,0.0,True,-,False,-,False
pb_dwq-ep3ec,9570.0,True,220.0,95.0,0.0,0.0,True,-,False,-,False
iauyjevmpplo,9910.0,True,260.0,95.0,0.0,0.0,True,-,False,-,False
kw5uep1zl4ok,8820.0,True,40.0,95.0,0.0,0.0,True,-,False,-,False
xuizbq5o_d9c,8500.0,True,40.0,95.0,0.0,0.0,True,0.043478260869565216,False,-,False
n3ir0pbfudsc,9370.0,True,160.0,95.0,0.0,0.0,True,0.17391304347826086,False,-,False
vrwkbayciclq,9310.0,True,340.0,95.0,0.0,0.0,True,-,False,-,False
2ctvyf_i4mkc,9400.0,True,340.0,95.0,0.0,0.0,True,0.3695652173913043,False,-,False
j_yhlrgunqxi,3680.0,True,0.0,0.0,0.0,0.0,True,-,False,-,False
_peghs8yhop6,5770.0,True,40.0,0.0,0.0,0.0,True,-,False,-,False
o-ha5vfdmlze,8230.0,True,100.0,0.0,0.0,0.0,True,-,False,-,False
yxmxy3whku5n,10140.0,True,260.0,70.0,50.0,0.0,True,0.2826086956521739,False,-,False
nsjsiue1v5q2,9980.0,True,220.0,0.0,0.0,0.0,True,0.23913043478260868,False,-,False
v_sa1ojn2tmg,10370.0,True,300.0,0.0,0.0,0.0,True,0.2826086956521739,False,-,False
sz0zij2qq67q,10140.0,True,340.0,0.0,0.0,0.0,True,0.3695652173913043,False,-,False
yqnue31suqkd,9430.0,True,160.0,0.0,0.0,0.0,True,-,False,-,False
nw8x5f_kxy54,8960.0,True,132.0,0.0,0.0,0.0,True,0.85625,True,-,False
x3vic631u1rv,10020.0,True,139.0,0.0,0.0,0.0,True,0.0,True,-,False
ubvigermlpza,5920.0,False,210.0,0.0,0.0,0.0,True,-,False,-,False
0selbgeo1duz,4460.0,False,0.0,0.0,0.0,0.0,True,-,False,-,False
5pgmnbqvcb-8,11250.0,True,139.0,0.0,0.0,0.0,True,1.5499999999999998,True,-,False
ez36axgysha3,11070.0,True,178.0,0.0,0.0,0.0,True,1.5499999999999998,True,-,False
rz_wr2vh0aai,6393.0,True,132.0,0.0,102.43589743589743,0.0,True,2.144,True,-,False
lbn-roe7lsza,3494.0,True,0.0,0.0,102.43589743589743,0.0,True,0.0,True,-,False
t83ssurwdefl,7450.0,True,121.0,-,-,-,False,0.03108,True,-,False
rx0spowqgwny,5536.666666666667,True,244.0,0.0,0.0,0.0,True,-,False,-,False
njp4u-l1pkjw,6868.0,True,150.0,0.0,102.43589743589743,0.0,True,0.0,True,-,False
83dyisyhgga-,5044.0,True,75.0,0.0,96.41025641025641,0.0,True,0.0,True,-,False
bhmd1zpaclxm,5957.0,True,150.0,0.0,96.41025641025641,0.0,True,0.0,True,-,False
w-7jsp-y41bi,6993.333333333333,True,144.0,0.0,0.0,0.0,True,-,False,-,False
25dfo45dvqpv,1686.6666666666667,True,0.0,0.0,0.0,0.0,True,-,False,-,False
w9vvluuc0aas,4405.0,True,300.0,0.0,96.41025641025641,0.0,True,0.0,True,-,False
sdiqki7uc602,7822.0,True,177.0,0.0,96.41025641025641,0.0,True,0.0,True,-,False
udllzvcbabxv,9840.0,True,180.0,-,-,-,False,-,False,-,False
cteqo8v3dhvg,8800.0,True,217.9,0.0,0.0,0.0,True,9.473268699999998,True,0.0,True
sulihgjgsoiy,8300.0,True,218.2,0.0,0.0,0.0,True,9.473268699999998,True,0.0,True
wazzagm-hlxx,-,False,100.0,-,-,-,False,-,False,-,False
554uj7zwzghi,-,False,100.0,-,-,-,False,-,False,-,False
c6wgfcipins4,4790.0,True,240.0,0.0,0.0,0.0,True,0.0,True,0.0,True
sg1dkxjthezp,-,False,100.0,-,-,-,False,0.1,False,-,False
k4fky5tcppoo,-,False,100.0,-,-,-,False,-,False,-,False
fzsrysfq7hpv,6240.0,True,40.0,-,-,-,False,-,False,-,False
a-gp7syy59sy,9290.0,True,180.0,-,-,-,False,0.1,False,-,False
