{
  "@id": "7o8kumfwpgbi",
  "@type": "Cycle",
  "endDate": "2004",
  "functionalUnit": "1 ha",
  "description": "Urea 100 + Agrotain 1000mg nBTPT/kg urea, coated",
  "defaultMethodClassification": "physical measurement",
  "defaultMethodClassificationDescription": "designed experiment",
  "completeness": {
    "fertiliser": false,
    "soilAmendments": false,
    "pesticidesAntibiotics": false,
    "water": false,
    "electricityFuel": false,
    "products": true,
    "cropResidue": false,
    "excreta": true,
    "other": false,
    "material": false,
    "animalFeed": true,
    "waste": true,
    "liveAnimals": true,
    "transport": false,
    "operations": false,
    "@type": "Completeness"
  },
  "site": {
    "@id": "uok17xxiakef",
    "@type": "Site",
    "country": {
      "@type": "Term",
      "termType": "region",
      "name": "United Kingdom",
      "@id": "GADM-GBR"
    }
  },
  "products": [
    {
      "term": {
        "@type": "Term",
        "termType": "crop",
        "name": "Wheat, grain",
        "units": "kg",
        "@id": "wheatGrain"
      },
      "value": [
        10020
      ],
      "sd": [
        207.84609690826525
      ],
      "statsDefinition": "replications",
      "observations": [
        3
      ],
      "properties": [
        {
          "term": {
            "@type": "Term",
            "name": "Dry matter",
            "termType": "property",
            "@id": "dryMatter",
            "units": "%"
          },
          "value": 85,
          "@type": "Property"
        }
      ],
      "primary": true,
      "@type": "Product"
    },
    {
      "term": {
        "@type": "Term",
        "name": "Nitrogen uptake (whole crop)",
        "termType": "crop",
        "@id": "nitrogenUptakeWholeCrop",
        "units": "kg N"
      },
      "value": [
        227.8
      ],
      "sd": [
        11.310291773424769
      ],
      "statsDefinition": "replications",
      "@type": "Product"
    }
  ],
  "inputs": [
    {
      "term": {
        "@type": "Term",
        "name": "Ammonium Nitrate (kg N)",
        "termType": "inorganicFertiliser",
        "@id": "ammoniumNitrateKgN",
        "units": "kg N"
      },
      "value": [
        80
      ],
      "description": "40 kgN/ha as AN applied in mid February/early March, and a further 40 kgN/ha was applied in late March/early April; applied by hand",
      "@type": "Input"
    },
    {
      "term": {
        "@type": "Term",
        "name": "Urea (kg N)",
        "termType": "inorganicFertiliser",
        "@id": "ureaKgN",
        "units": "kg N"
      },
      "value": [
        100
      ],
      "description": "applied by hand",
      "dates": [
        "2004-05-12"
      ],
      "properties": [
        {
          "term": {
            "@type": "Term",
            "name": "Urease inhibitor used",
            "termType": "property",
            "@id": "ureaseInhibitorUsed",
            "units": "boolean"
          },
          "value": true,
          "description": "Urea + Agrotain (1000 mg/kg active ingredient nBTPT / kg of urea) coated",
          "@type": "Property"
        }
      ],
      "@type": "Input"
    },
    {
      "term": {
        "@type": "Term",
        "name": "Urease inhibitor, unspecified",
        "termType": "pesticideAI",
        "@id": "ureaseInhibitorUnspecified",
        "units": "kg active ingredient"
      },
      "value": [
        0.1
      ],
      "@type": "Input"
    }
  ],
  "cycleDuration": 365,
  "name": "Wheat, grain - Cambridgeshire, United Kingdom - 2004 - Urea 100 + Agrotain 1000mg nBT...",
  "schemaVersion": "19.0.0",
  "dataPrivate": true
}