{
  "@id": "_sfolajl8gaa",
  "@type": "Cycle",
  "endDate": "2005",
  "functionalUnit": "1 ha",
  "description": "Urea 100 kg/ha N",
  "defaultMethodClassification": "physical measurement",
  "defaultMethodClassificationDescription": "designed experiment",
  "completeness": {
    "fertiliser": false,
    "soilAmendments": false,
    "pesticidesAntibiotics": false,
    "water": false,
    "electricityFuel": false,
    "products": true,
    "cropResidue": false,
    "excreta": true,
    "other": false,
    "material": false,
    "animalFeed": true,
    "waste": true,
    "liveAnimals": true,
    "transport": false,
    "operations": false,
    "@type": "Completeness"
  },
  "site": {
    "@id": "ghxxui2kxxvt",
    "@type": "Site",
    "country": {
      "@type": "Term",
      "termType": "region",
      "name": "United Kingdom",
      "@id": "GADM-GBR"
    }
  },
  "products": [
    {
      "term": {
        "@type": "Term",
        "termType": "crop",
        "name": "Wheat, grain",
        "units": "kg",
        "@id": "wheatGrain"
      },
      "value": [
        6680
      ],
      "sd": [
        415.6921938165305
      ],
      "statsDefinition": "replications",
      "observations": [
        3
      ],
      "properties": [
        {
          "term": {
            "@type": "Term",
            "name": "Dry matter",
            "termType": "property",
            "@id": "dryMatter",
            "units": "%"
          },
          "value": 85,
          "@type": "Property"
        }
      ],
      "primary": true,
      "@type": "Product"
    },
    {
      "term": {
        "@type": "Term",
        "name": "Nitrogen uptake (whole crop)",
        "termType": "crop",
        "@id": "nitrogenUptakeWholeCrop",
        "units": "kg N"
      },
      "value": [
        149.5
      ],
      "sd": [
        4.659216672360279
      ],
      "statsDefinition": "replications",
      "@type": "Product"
    }
  ],
  "inputs": [
    {
      "term": {
        "@type": "Term",
        "name": "Ammonium Nitrate (kg N)",
        "termType": "inorganicFertiliser",
        "@id": "ammoniumNitrateKgN",
        "units": "kg N"
      },
      "value": [
        40
      ],
      "description": "40 kgN/ha as AN applied in mid February/early March; applied by hand",
      "@type": "Input"
    },
    {
      "term": {
        "@type": "Term",
        "name": "Urea (kg N)",
        "termType": "inorganicFertiliser",
        "@id": "ureaKgN",
        "units": "kg N"
      },
      "value": [
        100
      ],
      "description": "applied by hand",
      "dates": [
        "2005-04-19"
      ],
      "properties": [
        {
          "term": {
            "@type": "Term",
            "name": "Urease inhibitor used",
            "termType": "property",
            "@id": "ureaseInhibitorUsed",
            "units": "boolean"
          },
          "value": false,
          "@type": "Property"
        }
      ],
      "@type": "Input"
    }
  ],
  "cycleDuration": 365,
  "name": "Wheat, grain - Midlothian (Unitary District), Scotland, United Kingdom - 2005 - Urea 100 kg/ha N",
  "schemaVersion": "19.0.0",
  "dataPrivate": true
}