{
  "@id": "azaewvgcmx5m",
  "@type": "Cycle",
  "endDate": "2011",
  "functionalUnit": "1 ha",
  "defaultMethodClassification": "physical measurement",
  "defaultMethodClassificationDescription": "designed experiment",
  "completeness": {
    "fertiliser": true,
    "soilAmendments": false,
    "pesticidesAntibiotics": false,
    "water": false,
    "electricityFuel": false,
    "products": true,
    "cropResidue": false,
    "excreta": true,
    "other": false,
    "material": false,
    "animalFeed": true,
    "waste": true,
    "liveAnimals": true,
    "transport": false,
    "operations": false,
    "@type": "Completeness"
  },
  "site": {
    "@id": "foodp2tyny9l",
    "@type": "Site",
    "country": {
      "@type": "Term",
      "termType": "region",
      "name": "United Kingdom",
      "@id": "GADM-GBR"
    }
  },
  "products": [
    {
      "term": {
        "@type": "Term",
        "termType": "crop",
        "name": "Wheat, grain",
        "units": "kg",
        "@id": "wheatGrain"
      },
      "value": [
        4500,
        4250,
        3970
      ],
      "statsDefinition": "replications",
      "source": {
        "@id": "8qbtgg6ukhmv",
        "@type": "Source"
      },
      "properties": [
        {
          "term": {
            "@type": "Term",
            "name": "Dry matter",
            "termType": "property",
            "@id": "dryMatter",
            "units": "%"
          },
          "value": 85,
          "@type": "Property"
        },
        {
          "term": {
            "@type": "Term",
            "name": "Nitrogen content",
            "termType": "property",
            "@id": "nitrogenContent",
            "units": "%"
          },
          "value": 1.35,
          "@type": "Property"
        }
      ],
      "primary": true,
      "@type": "Product"
    }
  ],
  "inputs": [
    {
      "term": {
        "@type": "Term",
        "name": "Organic Nitrogen fertiliser, unspecified (kg N)",
        "termType": "organicFertiliser",
        "@id": "organicNitrogenFertiliserUnspecifiedKgN",
        "units": "kg N"
      },
      "value": [
        0
      ],
      "description": "control",
      "@type": "Input"
    }
  ],
  "cycleDuration": 365,
  "name": "Wheat, grain - Norfolk (Administrative County), England, United Kingdom - 2011",
  "schemaVersion": "19.0.0",
  "dataPrivate": true
}