{
  "@id": "b5zoqvvff8p1",
  "@type": "Cycle",
  "endDate": "2012",
  "functionalUnit": "1 ha",
  "defaultMethodClassification": "physical measurement",
  "defaultMethodClassificationDescription": "designed experiment",
  "completeness": {
    "fertiliser": true,
    "soilAmendments": false,
    "pesticidesAntibiotics": false,
    "water": false,
    "electricityFuel": false,
    "products": true,
    "cropResidue": false,
    "excreta": true,
    "other": false,
    "material": false,
    "animalFeed": true,
    "waste": true,
    "liveAnimals": true,
    "transport": false,
    "operations": false,
    "@type": "Completeness"
  },
  "site": {
    "@id": "amk5vmh-dyyo",
    "@type": "Site",
    "country": {
      "@type": "Term",
      "termType": "region",
      "name": "United Kingdom",
      "@id": "GADM-GBR"
    }
  },
  "products": [
    {
      "term": {
        "@type": "Term",
        "termType": "crop",
        "name": "Wheat, grain",
        "units": "kg",
        "@id": "wheatGrain"
      },
      "value": [
        7720,
        7610,
        7940
      ],
      "statsDefinition": "replications",
      "source": {
        "@id": "8qbtgg6ukhmv",
        "@type": "Source"
      },
      "properties": [
        {
          "term": {
            "@type": "Term",
            "name": "Dry matter",
            "termType": "property",
            "@id": "dryMatter",
            "units": "%"
          },
          "value": 85,
          "@type": "Property"
        },
        {
          "term": {
            "@type": "Term",
            "name": "Nitrogen content",
            "termType": "property",
            "@id": "nitrogenContent",
            "units": "%"
          },
          "value": 1.41,
          "@type": "Property"
        }
      ],
      "primary": true,
      "@type": "Product"
    }
  ],
  "inputs": [
    {
      "term": {
        "@type": "Term",
        "termType": "organicFertiliser",
        "name": "Chicken (layers), solid manure, fresh (kg N)",
        "units": "kg N",
        "@id": "chickenLayersSolidManureFreshKgN"
      },
      "value": [
        258
      ],
      "description": "Layer Manure",
      "dates": [
        "2012-02-22"
      ],
      "properties": [
        {
          "term": {
            "@type": "Term",
            "name": "Dry matter",
            "termType": "property",
            "@id": "dryMatter",
            "units": "%"
          },
          "value": 60.9,
          "@type": "Property"
        },
        {
          "term": {
            "@type": "Term",
            "name": "pH",
            "termType": "property",
            "@id": "ph",
            "units": "unitless"
          },
          "value": 8.7,
          "@type": "Property"
        },
        {
          "term": {
            "@type": "Term",
            "name": "Total ammoniacal nitrogen content (as N)",
            "termType": "property",
            "@id": "totalAmmoniacalNitrogenContentAsN",
            "units": "%"
          },
          "value": 10,
          "@type": "Property"
        },
        {
          "term": {
            "@type": "Term",
            "name": "Organic carbon content",
            "termType": "property",
            "@id": "organicCarbonContent",
            "units": "%"
          },
          "value": 30.3,
          "@type": "Property"
        }
      ],
      "@type": "Input"
    }
  ],
  "cycleDuration": 365,
  "name": "Wheat, grain - Norfolk (Administrative County), England, United Kingdom - 2012",
  "schemaVersion": "19.0.0",
  "dataPrivate": true
}