{
  "@id": "ez36axgysha3",
  "@type": "Cycle",
  "endDate": "2006",
  "functionalUnit": "1 ha",
  "description": "ADAS Terrington, Optimium N rate",
  "defaultMethodClassification": "physical measurement",
  "defaultMethodClassificationDescription": "designed experiment",
  "completeness": {
    "fertiliser": true,
    "soilAmendments": false,
    "pesticidesAntibiotics": true,
    "water": false,
    "electricityFuel": false,
    "products": true,
    "cropResidue": false,
    "excreta": true,
    "other": false,
    "material": false,
    "animalFeed": true,
    "waste": true,
    "liveAnimals": true,
    "transport": false,
    "operations": false,
    "@type": "Completeness"
  },
  "site": {
    "@id": "noxjjof72i3p",
    "@type": "Site",
    "country": {
      "@type": "Term",
      "termType": "region",
      "name": "United Kingdom",
      "@id": "GADM-GBR"
    }
  },
  "products": [
    {
      "term": {
        "@type": "Term",
        "termType": "crop",
        "name": "Wheat, grain",
        "units": "kg",
        "@id": "wheatGrain"
      },
      "value": [
        11070
      ],
      "variety": "Claire",
      "properties": [
        {
          "term": {
            "@type": "Term",
            "name": "Dry matter",
            "termType": "property",
            "@id": "dryMatter",
            "units": "%"
          },
          "value": 83,
          "@type": "Property"
        }
      ],
      "primary": true,
      "@type": "Product"
    },
    {
      "term": {
        "@type": "Term",
        "termType": "crop",
        "name": "Wheat, straw",
        "units": "kg",
        "@id": "wheatStraw"
      },
      "value": [
        6642
      ],
      "methodClassification": "estimated with assumptions",
      "methodClassificationDescription": "straw yield assumed to be 0.6 of grain yield",
      "@type": "Product"
    }
  ],
  "inputs": [
    {
      "term": {
        "@type": "Term",
        "name": "Ammonium Nitrate (kg N)",
        "termType": "inorganicFertiliser",
        "@id": "ammoniumNitrateKgN",
        "units": "kg N"
      },
      "value": [
        178
      ],
      "description": "2 equal splits at GS30 and GS32",
      "@type": "Input"
    },
    {
      "term": {
        "@type": "Term",
        "name": "Epoxiconazole",
        "termType": "pesticideAI",
        "@id": "CAS-106325-08-0",
        "units": "kg active ingredient"
      },
      "value": [
        0.15
      ],
      "description": "Opus; Applied at GS32 and GS39; 125 g/L x 1.2 L/ ha = 150 g/ha",
      "@type": "Input"
    },
    {
      "term": {
        "@type": "Term",
        "name": "Chlorothalonil",
        "termType": "pesticideAI",
        "@id": "CAS-1897-45-6",
        "units": "kg active ingredient"
      },
      "value": [
        1
      ],
      "description": "Bravo; Applied at GS32 and GS39; 500 g/L x 2 L/ ha = 1000 g/ha",
      "@type": "Input"
    },
    {
      "term": {
        "@type": "Term",
        "name": "Pyraclostrobin",
        "termType": "pesticideAI",
        "@id": "CAS-175013-18-0",
        "units": "kg active ingredient"
      },
      "value": [
        0.4
      ],
      "description": "Comet 200; Applied at GS32 and GS39; 200 g/L x 2 L/ ha = 400 g/ha",
      "@type": "Input"
    }
  ],
  "cycleDuration": 365,
  "name": "Wheat, grain - King's Lynn and West Norfolk, United Kingdom - 2006 - ADAS Terrington, Optimium N ra...",
  "schemaVersion": "19.0.0",
  "dataPrivate": true
}