{
  "@id": "h5sbd1pl-7pi",
  "@type": "Cycle",
  "endDate": "2004",
  "functionalUnit": "1 ha",
  "description": "Liquad UAN 100 kg/ha N",
  "defaultMethodClassification": "physical measurement",
  "defaultMethodClassificationDescription": "designed experiment",
  "completeness": {
    "fertiliser": false,
    "soilAmendments": false,
    "pesticidesAntibiotics": false,
    "water": false,
    "electricityFuel": false,
    "products": true,
    "cropResidue": false,
    "excreta": true,
    "other": false,
    "material": false,
    "animalFeed": true,
    "waste": true,
    "liveAnimals": true,
    "transport": false,
    "operations": false,
    "@type": "Completeness"
  },
  "site": {
    "@id": "re_flneuxu4p",
    "@type": "Site",
    "country": {
      "@type": "Term",
      "termType": "region",
      "name": "United Kingdom",
      "@id": "GADM-GBR"
    }
  },
  "products": [
    {
      "term": {
        "@type": "Term",
        "termType": "crop",
        "name": "Wheat, grain",
        "units": "kg",
        "@id": "wheatGrain"
      },
      "value": [
        10710
      ],
      "sd": [
        502.2947341949744
      ],
      "statsDefinition": "replications",
      "observations": [
        3
      ],
      "properties": [
        {
          "term": {
            "@type": "Term",
            "name": "Dry matter",
            "termType": "property",
            "@id": "dryMatter",
            "units": "%"
          },
          "value": 85,
          "@type": "Property"
        }
      ],
      "primary": true,
      "@type": "Product"
    },
    {
      "term": {
        "@type": "Term",
        "name": "Nitrogen uptake (whole crop)",
        "termType": "crop",
        "@id": "nitrogenUptakeWholeCrop",
        "units": "kg N"
      },
      "value": [
        248.1
      ],
      "sd": [
        22.84575015183349
      ],
      "statsDefinition": "replications",
      "@type": "Product"
    }
  ],
  "inputs": [
    {
      "term": {
        "@type": "Term",
        "name": "Ammonium Nitrate (kg N)",
        "termType": "inorganicFertiliser",
        "@id": "ammoniumNitrateKgN",
        "units": "kg N"
      },
      "value": [
        80
      ],
      "description": "40 kgN/ha as AN applied in mid February/early March, and a further 40 kgN/ha was applied in late March/early April; applied by hand",
      "@type": "Input"
    },
    {
      "term": {
        "@type": "Term",
        "name": "Urea Ammonium Nitrate (kg N)",
        "termType": "inorganicFertiliser",
        "@id": "ureaAmmoniumNitrateKgN",
        "units": "kg N"
      },
      "value": [
        100
      ],
      "description": "stream jet nozzles",
      "dates": [
        "2004-05-12"
      ],
      "properties": [
        {
          "term": {
            "@type": "Term",
            "name": "Urease inhibitor used",
            "termType": "property",
            "@id": "ureaseInhibitorUsed",
            "units": "boolean"
          },
          "value": false,
          "@type": "Property"
        }
      ],
      "@type": "Input"
    }
  ],
  "cycleDuration": 365,
  "name": "Wheat, grain - Herefordshire (Unitary Authority (County)), England, United Kingdom - 2004 - Liquad UAN 100 kg/ha N",
  "schemaVersion": "19.0.0",
  "dataPrivate": true
}