{
  "id": "incorrect-yield-1",
  "type": "Cycle",
  "endDate": "2014",
  "functionalUnit": "1 ha",
  "defaultMethodClassification": "verified survey data",
  "defaultMethodClassificationDescription": "description",
  "completeness": {
    "fertiliser": true,
    "soilAmendments": true,
    "pesticidesAntibiotics": true,
    "water": true,
    "electricityFuel": true,
    "products": true,
    "cropResidue": false,
    "excreta": true,
    "other": true,
    "material": true,
    "animalFeed": true,
    "waste": true,
    "liveAnimals": true,
    "transport": true,
    "operations": true,
    "@type": "Completeness"
  },
  "site": {
    "id": "random",
    "type": "Site",
    "country": {
      "@type": "Term",
      "termType": "region",
      "name": "United Kingdom",
      "@id": "GADM-GBR"
    }
  },
  "products": [
    {
      "term": {
        "@type": "Term",
        "termType": "crop",
        "name": "Wheat, grain",
        "units": "kg",
        "@id": "wheatGrain"
      },
      "value": [
        500
      ],
      "properties": [
        {
          "term": {
            "@type": "Term",
            "name": "Crude protein content",
            "termType": "property",
            "@id": "crudeProteinContent",
            "units": "%"
          },
          "value": 13,
          "@type": "Property"
        }
      ],
      "primary": true,
      "@type": "Product"
    }
  ],
  "inputs": [
    {
      "term": {
        "@type": "Term",
        "name": "Seed",
        "termType": "other",
        "@id": "seed",
        "units": "kg"
      },
      "value": [
        179.55801104972375
      ],
      "description": "0.013 kg seed per 7.24E-5 ha, Supplementary Data Figure 1",
      "@type": "Input"
    },
    {
      "term": {
        "@type": "Term",
        "name": "Glyphosate",
        "termType": "pesticideAI",
        "@id": "CAS-1071-83-6",
        "units": "kg active ingredient"
      },
      "value": [
        1.7
      ],
      "description": "2 x 3.62E-5 L x density 1.7 / 7.24E-5 ha",
      "@type": "Input"
    },
    {
      "term": {
        "@type": "Term",
        "name": "Ammonium Nitrate (kg N)",
        "termType": "inorganicFertiliser",
        "@id": "ammoniumNitrateKgN",
        "units": "kg N"
      },
      "value": [
        228.89806629834257
      ],
      "description": "(Granular AN 0.042 kg + liquid AN 0.00311 x density 1.72 kg/l) / 7.24E-5 ha * 28/80, Supplementary Data Figure 1",
      "@type": "Input"
    },
    {
      "term": {
        "@type": "Term",
        "name": "Triple Super Phosphate (kg P2O5)",
        "termType": "inorganicFertiliser",
        "@id": "tripleSuperPhosphateKgP2O5",
        "units": "kg P2O5"
      },
      "value": [
        67.57412398921834
      ],
      "description": "0.019 kg x 46% P2O5 / 7.24E-5 ha",
      "@type": "Input"
    },
    {
      "term": {
        "@type": "Term",
        "name": "Potassium Chloride (kg K2O)",
        "termType": "inorganicFertiliser",
        "@id": "potassiumChlorideKgK2O",
        "units": "kg K2O"
      },
      "value": [
        50.96685082872928
      ],
      "description": "Muriate/Sulphate of Potash (kg), M/SOP, 0.00615 kg x 60% K2O / 7.24E-5 ha",
      "@type": "Input"
    },
    {
      "term": {
        "@type": "Term",
        "name": "Water, source unspecified",
        "termType": "water",
        "@id": "waterSourceUnspecified",
        "units": "m3"
      },
      "value": [
        1.5110497237569063
      ],
      "description": "water for all sprays",
      "operation": {
        "@type": "Term",
        "name": "Pesticide application, with sprayer",
        "termType": "operation",
        "@id": "pesticideApplicationWithSprayer",
        "units": "hour"
      },
      "@type": "Input"
    },
    {
      "term": {
        "@type": "Term",
        "name": "lambda-Cyhalothrin",
        "termType": "pesticideAI",
        "@id": "CAS-76703-65-6",
        "units": "kg active ingredient"
      },
      "value": [
        1.33
      ],
      "description": "7.24E-5 L x density 1.33 kg/l / 7.24E-5 ha",
      "@type": "Input"
    },
    {
      "term": {
        "@type": "Term",
        "name": "Flufenacet",
        "termType": "pesticideAI",
        "@id": "CAS-142459-58-3",
        "units": "kg active ingredient"
      },
      "value": [
        0.23950276243093918
      ],
      "description": "from Crystal (60g/L): 2.89E-4 L x 0.06 kg/l / 7.24E-5 ha",
      "@type": "Input"
    },
    {
      "term": {
        "@type": "Term",
        "name": "Pendimethalin",
        "termType": "pesticideAI",
        "@id": "CAS-40487-42-1",
        "units": "kg active ingredient"
      },
      "value": [
        1.197513812154696
      ],
      "description": "from Crystal (300g/L): 2.89E-4 L x 0.3 kg/l / 7.24E-5 ha",
      "@type": "Input"
    },
    {
      "term": {
        "@type": "Term",
        "name": "Succinate dehydrogenase inhibitors",
        "termType": "pesticideAI",
        "@id": "succinateDehydrogenaseInhibitors",
        "units": "kg active ingredient"
      },
      "value": [
        1.5055248618784531
      ],
      "description": "SDHI",
      "methodClassification": "estimated with assumptions",
      "methodClassificationDescription": "assuming density = 1.4 as Fluxapyroxad",
      "@type": "Input"
    }
  ],
  "cycleDuration": 365,
  "schemaVersion": "19.0.0",
  "dataPrivate": true
}
