{
  "@id": "kn-x7xvguz6n",
  "@type": "Cycle",
  "endDate": "2007",
  "functionalUnit": "1 ha",
  "description": "ADAS Boxworth, Optimium N rate",
  "defaultMethodClassification": "physical measurement",
  "defaultMethodClassificationDescription": "designed experiment",
  "completeness": {
    "fertiliser": true,
    "soilAmendments": false,
    "pesticidesAntibiotics": true,
    "water": false,
    "electricityFuel": false,
    "products": true,
    "cropResidue": false,
    "excreta": true,
    "other": false,
    "material": false,
    "animalFeed": true,
    "waste": true,
    "liveAnimals": true,
    "transport": false,
    "operations": false,
    "@type": "Completeness"
  },
  "site": {
    "@id": "52emibpo1hdc",
    "@type": "Site",
    "country": {
      "@type": "Term",
      "termType": "region",
      "name": "United Kingdom",
      "@id": "GADM-GBR"
    }
  },
  "products": [
    {
      "term": {
        "@type": "Term",
        "termType": "crop",
        "name": "Wheat, grain",
        "units": "kg",
        "@id": "wheatGrain"
      },
      "value": [
        9060
      ],
      "variety": "Claire",
      "properties": [
        {
          "term": {
            "@type": "Term",
            "name": "Dry matter",
            "termType": "property",
            "@id": "dryMatter",
            "units": "%"
          },
          "value": 83,
          "@type": "Property"
        }
      ],
      "primary": true,
      "@type": "Product"
    },
    {
      "term": {
        "@type": "Term",
        "termType": "crop",
        "name": "Wheat, straw",
        "units": "kg",
        "@id": "wheatStraw"
      },
      "value": [
        5436
      ],
      "methodClassification": "estimated with assumptions",
      "methodClassificationDescription": "straw yield assumed to be 0.6 of grain yield",
      "@type": "Product"
    }
  ],
  "inputs": [
    {
      "term": {
        "@type": "Term",
        "name": "Ammonium Nitrate (kg N)",
        "termType": "inorganicFertiliser",
        "@id": "ammoniumNitrateKgN",
        "units": "kg N"
      },
      "value": [
        137
      ],
      "description": "2 equal splits at GS30/31 and GS32",
      "@type": "Input"
    },
    {
      "term": {
        "@type": "Term",
        "name": "Epoxiconazole",
        "termType": "pesticideAI",
        "@id": "CAS-106325-08-0",
        "units": "kg active ingredient"
      },
      "value": [
        0.15625
      ],
      "description": "Opus; Applied at GS32 and GS39; 125 g/L x 1.25 L/ ha = 156.25 g/ha",
      "@type": "Input"
    },
    {
      "term": {
        "@type": "Term",
        "name": "Pyraclostrobin",
        "termType": "pesticideAI",
        "@id": "CAS-175013-18-0",
        "units": "kg active ingredient"
      },
      "value": [
        0.2
      ],
      "description": "Comet 200; Applied at GS32 and GS39; 200 g/L x 1 L/ ha = 200 g/ha",
      "@type": "Input"
    },
    {
      "term": {
        "@type": "Term",
        "name": "Boscalid",
        "termType": "pesticideAI",
        "@id": "CAS-188425-85-6",
        "units": "kg active ingredient"
      },
      "value": [
        0.5
      ],
      "description": "Filan (50% w⁄w boscalid; BASF) at 1 kg/ha applied at GS32 and GS39.",
      "@type": "Input"
    }
  ],
  "cycleDuration": 365,
  "name": "Wheat, grain - Cambridgeshire, United Kingdom - 2007 - ADAS Boxworth, Optimium N rate",
  "schemaVersion": "19.0.0",
  "dataPrivate": true
}