{
  "@id": "pqka71qgu619",
  "@type": "Cycle",
  "endDate": "2005",
  "functionalUnit": "1 ha",
  "description": "Conventional production. The farm is located on a sandy loam soil and the same basic equipment (plough, harrow and harvesting).",
  "defaultMethodClassification": "verified survey data",
  "defaultMethodClassificationDescription": "All physical data (yields, variable and fixed costs, gross margins, physical data on fertiliser and pesticide treatments and field operations) was obtained from farm records",
  "completeness": {
    "fertiliser": true,
    "soilAmendments": true,
    "pesticidesAntibiotics": true,
    "water": true,
    "electricityFuel": true,
    "products": true,
    "cropResidue": false,
    "excreta": true,
    "other": true,
    "material": true,
    "animalFeed": true,
    "waste": true,
    "liveAnimals": true,
    "transport": true,
    "operations": true,
    "@type": "Completeness"
  },
  "site": {
    "@id": "l1uysfbxb8rv",
    "@type": "Site",
    "country": {
      "@type": "Term",
      "termType": "region",
      "name": "United Kingdom",
      "@id": "GADM-GBR"
    }
  },
  "products": [
    {
      "term": {
        "@type": "Term",
        "termType": "crop",
        "name": "Wheat, grain",
        "units": "kg",
        "@id": "wheatGrain"
      },
      "value": [
        8100
      ],
      "currency": "GBP",
      "price": 0.088,
      "description": "8.1 t/ha (marketable crop) x 88£/t = 712.8£/ha, with a gross margin at 505£/ha",
      "primary": true,
      "@type": "Product"
    },
    {
      "term": {
        "@type": "Term",
        "termType": "crop",
        "name": "Wheat, straw",
        "units": "kg",
        "@id": "wheatStraw"
      },
      "value": [
        1800
      ],
      "description": "straw",
      "@type": "Product"
    }
  ],
  "inputs": [
    {
      "term": {
        "@type": "Term",
        "name": "Inorganic Nitrogen fertiliser, unspecified (kg N)",
        "termType": "inorganicFertiliser",
        "@id": "inorganicNitrogenFertiliserUnspecifiedKgN",
        "units": "kg N"
      },
      "value": [
        140
      ],
      "description": "Omex 359.9 l/ha",
      "@type": "Input"
    },
    {
      "term": {
        "@type": "Term",
        "name": "Epsom salts",
        "termType": "soilAmendment",
        "@id": "epsomSalts",
        "units": "kg"
      },
      "value": [
        2.4
      ],
      "description": "Bittersalz",
      "@type": "Input"
    },
    {
      "term": {
        "@type": "Term",
        "name": "Copper chloride hydroxide (Cu2Cl(OH)3)",
        "termType": "pesticideAI",
        "@id": "CAS-1332-65-6",
        "units": "kg active ingredient"
      },
      "value": [
        0.5
      ],
      "description": "Cu Oxychlor",
      "@type": "Input"
    },
    {
      "term": {
        "@type": "Term",
        "name": "Manganese sulphate",
        "termType": "pesticideAI",
        "@id": "CAS-10124-55-7",
        "units": "kg active ingredient"
      },
      "value": [
        19.8
      ],
      "description": "Mn Sul Sedema",
      "@type": "Input"
    },
    {
      "term": {
        "@type": "Term",
        "name": "Lime",
        "termType": "soilAmendment",
        "@id": "lime",
        "units": "kg CaCO3"
      },
      "value": [
        403.8333333333333
      ],
      "description": "1 treatment in 6 years",
      "@type": "Input"
    },
    {
      "term": {
        "@type": "Term",
        "name": "Activator 90",
        "termType": "pesticideBrandName",
        "@id": "activator90",
        "units": "kg"
      },
      "value": [
        0.68
      ],
      "description": "0.68 l/ha @ density: 0.98 - 1.1",
      "@type": "Input"
    },
    {
      "term": {
        "@type": "Term",
        "name": "Seed",
        "termType": "other",
        "@id": "seed",
        "units": "kg"
      },
      "value": [
        97
      ],
      "@type": "Input"
    },
    {
      "term": {
        "@type": "Term",
        "name": "Metsulphuron-methyl",
        "termType": "pesticideAI",
        "@id": "CAS-74223-64-6",
        "units": "kg active ingredient"
      },
      "value": [
        0.0058920000000000005
      ],
      "description": "0.2 ai x 0.02 l/ha x relative density of 1.47 (https://www.chemsrc.com/en/cas/74223-64-6_509794.html)",
      "@type": "Input"
    },
    {
      "term": {
        "@type": "Term",
        "name": "Isoproturon",
        "termType": "pesticideAI",
        "@id": "CAS-34123-59-6",
        "units": "kg active ingredient"
      },
      "value": [
        1.2179999999999997
      ],
      "description": "0.5 ai x 2.03 l/ha x relative density of 1.2",
      "@type": "Input"
    },
    {
      "term": {
        "@type": "Term",
        "name": "Diflufenican",
        "termType": "pesticideAI",
        "@id": "CAS-83164-33-4",
        "units": "kg active ingredient"
      },
      "value": [
        0.8796480000000001
      ],
      "description": "0.56 ai x 1.02 l/ha x relative density of 1.54",
      "@type": "Input"
    },
    {
      "term": {
        "@type": "Term",
        "name": "Fluroxypyr",
        "termType": "pesticideAI",
        "@id": "CAS-69377-81-7",
        "units": "kg active ingredient"
      },
      "value": [
        0.10028000000000002
      ],
      "description": "0.2 ai x 0.46 l/ha x relative density of 1.09",
      "@type": "Input"
    },
    {
      "term": {
        "@type": "Term",
        "name": "Chlorothalonil",
        "termType": "pesticideAI",
        "@id": "CAS-1897-45-6",
        "units": "kg active ingredient"
      },
      "value": [
        2.052
      ],
      "description": "0.5 ai x 2.28 l/ha x relative density of 1.8",
      "@type": "Input"
    },
    {
      "term": {
        "@type": "Term",
        "name": "Tebuconazole",
        "termType": "pesticideAI",
        "@id": "CAS-107534-96-3",
        "units": "kg active ingredient"
      },
      "value": [
        0.3125
      ],
      "description": "0.25 ai x 1.0 l/ha x relative density of 1.25",
      "@type": "Input"
    },
    {
      "term": {
        "@type": "Term",
        "name": "Prothioconazole",
        "termType": "pesticideAI",
        "@id": "CAS-178928-70-6",
        "units": "kg active ingredient"
      },
      "value": [
        0.2686
      ],
      "description": "0.25 ai x 0.79 l/ha x density of 1.36",
      "@type": "Input"
    },
    {
      "term": {
        "@type": "Term",
        "name": "Pirimiphos",
        "termType": "pesticideAI",
        "@id": "CAS-103827-27-6",
        "units": "kg active ingredient"
      },
      "value": [
        0.05175
      ],
      "description": "0.5 ai x 0.09 l/ha x density of 1.15",
      "@type": "Input"
    },
    {
      "term": {
        "@type": "Term",
        "name": "Cypermethrin",
        "termType": "pesticideAI",
        "@id": "CAS-52315-07-8",
        "units": "kg active ingredient"
      },
      "value": [
        0.027500000000000004
      ],
      "description": "0.1 ai x 0.25 l/ha x relative density of 1.1",
      "@type": "Input"
    },
    {
      "term": {
        "@type": "Term",
        "name": "Chlormequat chloride",
        "termType": "pesticideAI",
        "@id": "CAS-999-81-5",
        "units": "kg active ingredient"
      },
      "value": [
        2.5536
      ],
      "@type": "Input"
    },
    {
      "term": {
        "@type": "Term",
        "name": "Ethephon",
        "termType": "pesticideAI",
        "@id": "CAS-16672-87-0",
        "units": "kg active ingredient"
      },
      "value": [
        0.516
      ],
      "description": "(2-Chloroethyl)phosphonic acid, density=1.2",
      "@type": "Input"
    },
    {
      "term": {
        "@type": "Term",
        "name": "Diesel",
        "termType": "fuel",
        "@id": "diesel",
        "units": "kg"
      },
      "value": [
        25.45054945054945
      ],
      "description": "1158 MJ/ha",
      "operation": {
        "@type": "Term",
        "name": "Ploughing, machine unspecified",
        "termType": "operation",
        "@id": "ploughingMachineUnspecified",
        "units": "hour"
      },
      "@type": "Input"
    },
    {
      "term": {
        "@type": "Term",
        "name": "Diesel",
        "termType": "fuel",
        "@id": "diesel",
        "units": "kg"
      },
      "value": [
        14.593406593406593
      ],
      "description": "664 MJ/ha power harrow",
      "operation": {
        "@type": "Term",
        "name": "Harrowing, machine unspecified",
        "termType": "operation",
        "@id": "harrowingMachineUnspecified",
        "units": "hour"
      },
      "@type": "Input"
    },
    {
      "term": {
        "@type": "Term",
        "name": "Diesel",
        "termType": "fuel",
        "@id": "diesel",
        "units": "kg"
      },
      "value": [
        7.648351648351649
      ],
      "description": "348 MJ/ha drill",
      "operation": {
        "@type": "Term",
        "name": "Sowing seeds, with seed drill",
        "termType": "operation",
        "@id": "sowingSeedsWithSeedDrill",
        "units": "hour"
      },
      "@type": "Input"
    },
    {
      "term": {
        "@type": "Term",
        "name": "Diesel",
        "termType": "fuel",
        "@id": "diesel",
        "units": "kg"
      },
      "value": [
        5.032967032967033
      ],
      "description": "229 MJ/ha roll",
      "operation": {
        "@type": "Term",
        "termType": "operation",
        "name": "Soil decompaction, with chisel and roller",
        "units": "hour",
        "@id": "soilDecompactionWithChiselAndRoller"
      },
      "@type": "Input"
    },
    {
      "term": {
        "@type": "Term",
        "name": "Diesel",
        "termType": "fuel",
        "@id": "diesel",
        "units": "kg"
      },
      "value": [
        5.450549450549451
      ],
      "description": "248 MJ/ha hoe",
      "operation": {
        "@type": "Term",
        "name": "Hoeing, machine unspecified",
        "termType": "operation",
        "@id": "hoeingMachineUnspecified",
        "units": "hour"
      },
      "@type": "Input"
    },
    {
      "term": {
        "@type": "Term",
        "name": "Diesel",
        "termType": "fuel",
        "@id": "diesel",
        "units": "kg"
      },
      "value": [
        45.494505494505496
      ],
      "description": "Spray 110l/h + 10 x sprays 220l (120+1950 MJ/ha )",
      "operation": {
        "@type": "Term",
        "termType": "operation",
        "name": "Fertilising, with sprayer",
        "units": "hour",
        "@id": "fertilisingWithSprayer"
      },
      "@type": "Input"
    },
    {
      "term": {
        "@type": "Term",
        "name": "Diesel",
        "termType": "fuel",
        "@id": "diesel",
        "units": "kg"
      },
      "value": [
        17.274725274725274
      ],
      "description": "786 MJ/ha combine",
      "operation": {
        "@type": "Term",
        "name": "Harvesting crops, with combine harvester",
        "termType": "operation",
        "@id": "harvestingCropsWithCombineHarvester",
        "units": "hour"
      },
      "@type": "Input"
    },
    {
      "term": {
        "@type": "Term",
        "name": "Diesel",
        "termType": "fuel",
        "@id": "diesel",
        "units": "kg"
      },
      "value": [
        12.307692307692308
      ],
      "description": "560 MJ/ha disc+press",
      "operation": {
        "@type": "Term",
        "name": "Mowing, with disc mower",
        "termType": "operation",
        "@id": "mowingWithDiscMower",
        "units": "hour"
      },
      "@type": "Input"
    }
  ],
  "cycleDuration": 365,
  "name": "Wheat, grain - Lincolnshire, United Kingdom - 2005 - Conventional production. The f...",
  "schemaVersion": "18.1.0",
  "dataPrivate": true
}