{
  "@id": "rq3sxnru_u9p",
  "@type": "Cycle",
  "startDate": "2010-10-05",
  "startDateDefinition": "sowing date",
  "endDate": "2011-08-11",
  "functionalUnit": "1 ha",
  "description": "Experiment AN+DCD",
  "defaultMethodClassification": "physical measurement",
  "defaultMethodClassificationDescription": "designed experiment",
  "completeness": {
    "fertiliser": true,
    "soilAmendments": true,
    "pesticidesAntibiotics": true,
    "water": true,
    "electricityFuel": false,
    "products": true,
    "cropResidue": false,
    "excreta": true,
    "other": false,
    "material": true,
    "animalFeed": true,
    "waste": true,
    "liveAnimals": true,
    "transport": true,
    "operations": false,
    "@type": "Completeness"
  },
  "site": {
    "@id": "pj9lo5bjzw6g",
    "@type": "Site",
    "country": {
      "@type": "Term",
      "termType": "region",
      "name": "United Kingdom",
      "@id": "GADM-GBR"
    }
  },
  "products": [
    {
      "term": {
        "@type": "Term",
        "termType": "crop",
        "name": "Wheat, grain",
        "units": "kg",
        "@id": "wheatGrain"
      },
      "value": [
        10360
      ],
      "description": "mean yields are transformed to normalise the data; original data in Supplementary Table 3",
      "primary": true,
      "@type": "Product"
    }
  ],
  "inputs": [
    {
      "term": {
        "@type": "Term",
        "name": "Ammonium Nitrate (kg N)",
        "termType": "inorganicFertiliser",
        "@id": "ammoniumNitrateKgN",
        "units": "kg N"
      },
      "value": [
        33.5,
        93.5,
        93.5
      ],
      "description": "240 (40, 100, 100 minus 6.5 kg N from DCD)",
      "dates": [
        "2011-03-09",
        "2011-04-04",
        "2011-05-03"
      ],
      "@type": "Input"
    },
    {
      "term": {
        "@type": "Term",
        "name": "Urea (kg N)",
        "termType": "inorganicFertiliser",
        "@id": "ureaKgN",
        "units": "kg N"
      },
      "value": [
        0
      ],
      "@type": "Input"
    },
    {
      "term": {
        "@type": "Term",
        "name": "Cyanoguanidine",
        "termType": "pesticideAI",
        "@id": "CAS-461-58-5",
        "units": "kg active ingredient"
      },
      "value": [
        10,
        10,
        10
      ],
      "description": "DCD was applied at 10 kg DCD / ha (65% N), using a knap-sack sprayer",
      "dates": [
        "2011-03-09",
        "2011-04-04",
        "2011-05-03"
      ],
      "@type": "Input"
    }
  ],
  "cycleDuration": 310,
  "name": "Wheat, grain - Herefordshire (Unitary Authority (County)), England, United Kingdom - 2011-08-11 - Experiment AN+DCD",
  "schemaVersion": "19.0.0",
  "dataPrivate": true
}