{
  "@id": "rz_wr2vh0aai",
  "@type": "Cycle",
  "startDate": "2016-10-10",
  "startDateDefinition": "sowing date",
  "endDate": "2017-08-08",
  "functionalUnit": "1 ha",
  "description": "Digestate+NI; ploughed on 2016-09-19",
  "defaultMethodClassification": "physical measurement",
  "defaultMethodClassificationDescription": "designed experiment",
  "completeness": {
    "fertiliser": true,
    "soilAmendments": true,
    "pesticidesAntibiotics": true,
    "water": false,
    "electricityFuel": false,
    "products": true,
    "cropResidue": false,
    "excreta": true,
    "other": false,
    "material": false,
    "animalFeed": true,
    "waste": true,
    "liveAnimals": true,
    "transport": true,
    "operations": false,
    "@type": "Completeness"
  },
  "site": {
    "@id": "aopeazcbyvzf",
    "@type": "Site",
    "country": {
      "@type": "Term",
      "termType": "region",
      "name": "United Kingdom",
      "@id": "GADM-GBR"
    }
  },
  "products": [
    {
      "term": {
        "@type": "Term",
        "termType": "crop",
        "name": "Wheat, grain",
        "units": "kg",
        "@id": "wheatGrain"
      },
      "value": [
        6393
      ],
      "sd": [
        393
      ],
      "min": [
        5960
      ],
      "max": [
        6880
      ],
      "observations": [
        4
      ],
      "statsDefinition": "replications",
      "description": "Plot level yield data provided by author",
      "properties": [
        {
          "term": {
            "@type": "Term",
            "name": "Dry matter",
            "termType": "property",
            "@id": "dryMatter",
            "units": "%"
          },
          "value": 85,
          "@type": "Property"
        }
      ],
      "primary": true,
      "@type": "Product"
    },
    {
      "term": {
        "@type": "Term",
        "termType": "crop",
        "name": "Wheat, straw",
        "units": "kg",
        "@id": "wheatStraw"
      },
      "value": [
        3668
      ],
      "sd": [
        221.4
      ],
      "min": [
        3408
      ],
      "max": [
        3942
      ],
      "observations": [
        4
      ],
      "statsDefinition": "replications",
      "description": "Plot level straw yield (assuming 32% plant weight) data provided by author",
      "@type": "Product"
    }
  ],
  "inputs": [
    {
      "term": {
        "@type": "Term",
        "name": "Lime",
        "termType": "soilAmendment",
        "@id": "lime",
        "units": "kg CaCO3"
      },
      "value": [
        2000
      ],
      "@type": "Input"
    },
    {
      "term": {
        "@type": "Term",
        "name": "Monocalcium phosphate",
        "termType": "other",
        "@id": "CAS-7758-23-8",
        "units": "kg Ca(H2PO4)2"
      },
      "value": [
        245.32258064516128
      ],
      "description": "Ca(H2PO4)2: 65 kgP/ha x 234/62, applied during same week of sowing",
      "dates": [
        "2016-10-10"
      ],
      "@type": "Input"
    },
    {
      "term": {
        "@type": "Term",
        "name": "Potassium Chloride (kg K2O)",
        "termType": "inorganicFertiliser",
        "@id": "potassiumChlorideKgK2O",
        "units": "kg K2O"
      },
      "value": [
        102.43589743589743
      ],
      "description": "KCI: 85 kgK/ha to kg K2O, x 94/(39+39), applied during same week of sowing",
      "dates": [
        "2016-10-10"
      ],
      "@type": "Input"
    },
    {
      "term": {
        "@type": "Term",
        "name": "Kieserite",
        "termType": "soilAmendment",
        "@id": "kieserite",
        "units": "kg"
      },
      "value": [
        86.95652173913044
      ],
      "description": "MgSO4∙H2O, 100 kg/ha, applied in March",
      "@type": "Input"
    },
    {
      "term": {
        "@type": "Term",
        "termType": "organicFertiliser",
        "name": "Digestate (kg N)",
        "units": "kg N",
        "@id": "digestateKgN"
      },
      "value": [
        132
      ],
      "description": "2 L/ ha Nitrification Inhibitor 3,4-dimethylpyrazole phosphate (DMPP)",
      "dates": [
        "2017-04-19"
      ],
      "properties": [
        {
          "term": {
            "@type": "Term",
            "name": "Urease inhibitor used",
            "termType": "property",
            "@id": "ureaseInhibitorUsed",
            "units": "boolean"
          },
          "value": true,
          "@type": "Property"
        },
        {
          "term": {
            "@type": "Term",
            "name": "pH",
            "termType": "property",
            "@id": "ph",
            "units": "unitless"
          },
          "value": 8.24,
          "sd": 0.017320508075688773,
          "statsDefinition": "replications",
          "@type": "Property"
        },
        {
          "term": {
            "@type": "Term",
            "name": "Dry matter",
            "termType": "property",
            "@id": "dryMatter",
            "units": "%"
          },
          "value": 3.08,
          "sd": 0.32908965343808666,
          "statsDefinition": "replications",
          "@type": "Property"
        },
        {
          "term": {
            "@type": "Term",
            "name": "Nitrogen content",
            "termType": "property",
            "@id": "nitrogenContent",
            "units": "%"
          },
          "value": 33,
          "sd": 2.0784609690826525,
          "statsDefinition": "replications",
          "@type": "Property"
        },
        {
          "term": {
            "@type": "Term",
            "name": "Phosphorus content (as P)",
            "termType": "property",
            "@id": "phosphorusContentAsP",
            "units": "%"
          },
          "value": 5.6000000000000005,
          "sd": 0.34641016151377546,
          "statsDefinition": "replications",
          "@type": "Property"
        },
        {
          "term": {
            "@type": "Term",
            "name": "Magnesium content",
            "termType": "property",
            "@id": "magnesiumContent",
            "units": "%"
          },
          "value": 15.5,
          "sd": 0.17320508075688773,
          "statsDefinition": "replications",
          "@type": "Property"
        }
      ],
      "@type": "Input"
    },
    {
      "term": {
        "@type": "Term",
        "name": "3,4-Dimethylpyrazole phosphate",
        "termType": "pesticideAI",
        "@id": "CAS-202842-98-6",
        "units": "kg active ingredient"
      },
      "value": [
        2.144
      ],
      "description": "2 L / ha DMPP, 1.072 kg/L",
      "dates": [
        "2017-04-19"
      ],
      "@type": "Input"
    }
  ],
  "cycleDuration": 302,
  "name": "Wheat, grain - Gwynedd (Unitary Authority), Wales, United Kingdom - 2017-08-08 - Digestate+NI; ploughed on 2016...",
  "schemaVersion": "18.1.0",
  "dataPrivate": true
}