{
  "@id": "u26m_6vozv60",
  "@type": "Cycle",
  "startDate": "2010-10-20",
  "startDateDefinition": "sowing date",
  "endDate": "2011-09-02",
  "functionalUnit": "1 ha",
  "description": "Experiment Urea",
  "defaultMethodClassification": "physical measurement",
  "defaultMethodClassificationDescription": "designed experiment",
  "completeness": {
    "fertiliser": true,
    "soilAmendments": true,
    "pesticidesAntibiotics": true,
    "water": true,
    "electricityFuel": false,
    "products": true,
    "cropResidue": false,
    "excreta": true,
    "other": false,
    "material": true,
    "animalFeed": true,
    "waste": true,
    "liveAnimals": true,
    "transport": true,
    "operations": false,
    "@type": "Completeness"
  },
  "site": {
    "@id": "pj9lo5bjzw6g",
    "@type": "Site",
    "country": {
      "@type": "Term",
      "termType": "region",
      "name": "United Kingdom",
      "@id": "GADM-GBR"
    }
  },
  "products": [
    {
      "term": {
        "@type": "Term",
        "termType": "crop",
        "name": "Wheat, grain",
        "units": "kg",
        "@id": "wheatGrain"
      },
      "value": [
        4690
      ],
      "description": "mean yields are transformed to normalise the data; original data in Supplementary Table 3",
      "primary": true,
      "@type": "Product"
    }
  ],
  "inputs": [
    {
      "term": {
        "@type": "Term",
        "name": "Ammonium Nitrate (kg N)",
        "termType": "inorganicFertiliser",
        "@id": "ammoniumNitrateKgN",
        "units": "kg N"
      },
      "value": [
        0
      ],
      "@type": "Input"
    },
    {
      "term": {
        "@type": "Term",
        "name": "Urea (kg N)",
        "termType": "inorganicFertiliser",
        "@id": "ureaKgN",
        "units": "kg N"
      },
      "value": [
        40,
        70,
        70
      ],
      "dates": [
        "2011-03-14",
        "2011-04-11",
        "2011-05-09"
      ],
      "@type": "Input"
    },
    {
      "term": {
        "@type": "Term",
        "name": "Cyanoguanidine",
        "termType": "pesticideAI",
        "@id": "CAS-461-58-5",
        "units": "kg active ingredient"
      },
      "value": [
        0
      ],
      "@type": "Input"
    }
  ],
  "cycleDuration": 317,
  "name": "Wheat, grain - Herefordshire (Unitary Authority (County)), England, United Kingdom - 2011-09-02 - Experiment Urea",
  "schemaVersion": "19.0.0",
  "dataPrivate": true
}