{
  "@id": "vdx2pbqjfpty",
  "@type": "Cycle",
  "endDate": "2011",
  "functionalUnit": "1 ha",
  "defaultMethodClassification": "physical measurement",
  "defaultMethodClassificationDescription": "designed experiment",
  "completeness": {
    "fertiliser": true,
    "soilAmendments": false,
    "pesticidesAntibiotics": false,
    "water": false,
    "electricityFuel": false,
    "products": true,
    "cropResidue": false,
    "excreta": true,
    "other": false,
    "material": false,
    "animalFeed": true,
    "waste": true,
    "liveAnimals": true,
    "transport": false,
    "operations": false,
    "@type": "Completeness"
  },
  "site": {
    "@id": "foodp2tyny9l",
    "@type": "Site",
    "country": {
      "@type": "Term",
      "termType": "region",
      "name": "United Kingdom",
      "@id": "GADM-GBR"
    }
  },
  "products": [
    {
      "term": {
        "@type": "Term",
        "termType": "crop",
        "name": "Wheat, grain",
        "units": "kg",
        "@id": "wheatGrain"
      },
      "value": [
        6970,
        5480,
        4600,
        5720,
        5440,
        6210
      ],
      "statsDefinition": "replications",
      "source": {
        "@id": "8qbtgg6ukhmv",
        "@type": "Source"
      },
      "properties": [
        {
          "term": {
            "@type": "Term",
            "name": "Dry matter",
            "termType": "property",
            "@id": "dryMatter",
            "units": "%"
          },
          "value": 85,
          "@type": "Property"
        },
        {
          "term": {
            "@type": "Term",
            "name": "Nitrogen content",
            "termType": "property",
            "@id": "nitrogenContent",
            "units": "%"
          },
          "value": 1.38,
          "@type": "Property"
        }
      ],
      "primary": true,
      "@type": "Product"
    }
  ],
  "inputs": [
    {
      "term": {
        "@type": "Term",
        "termType": "organicFertiliser",
        "name": "Pigs, liquid manure (kg N)",
        "units": "kg N",
        "@id": "pigsLiquidManureKgN"
      },
      "value": [
        122
      ],
      "description": "pig slurry",
      "dates": [
        "2011-08-31"
      ],
      "properties": [
        {
          "term": {
            "@type": "Term",
            "name": "Dry matter",
            "termType": "property",
            "@id": "dryMatter",
            "units": "%"
          },
          "value": 2.3,
          "@type": "Property"
        },
        {
          "term": {
            "@type": "Term",
            "name": "pH",
            "termType": "property",
            "@id": "ph",
            "units": "unitless"
          },
          "value": 7.5,
          "@type": "Property"
        },
        {
          "term": {
            "@type": "Term",
            "name": "Total ammoniacal nitrogen content (as N)",
            "termType": "property",
            "@id": "totalAmmoniacalNitrogenContentAsN",
            "units": "%"
          },
          "value": 75,
          "@type": "Property"
        },
        {
          "term": {
            "@type": "Term",
            "name": "Organic carbon content",
            "termType": "property",
            "@id": "organicCarbonContent",
            "units": "%"
          },
          "value": 37.4,
          "@type": "Property"
        }
      ],
      "@type": "Input"
    }
  ],
  "cycleDuration": 365,
  "name": "Wheat, grain - Norfolk (Administrative County), England, United Kingdom - 2011",
  "schemaVersion": "19.0.0",
  "dataPrivate": true
}