{
  "@id": "w9vvluuc0aas",
  "@type": "Cycle",
  "startDate": "2016-10-10",
  "startDateDefinition": "sowing date",
  "endDate": "2017-08-15",
  "functionalUnit": "1 ha",
  "description": "Ammonium nitrate N response plot; ploughed on 2016-10-04; previoud crop is grassland",
  "defaultMethodClassification": "physical measurement",
  "defaultMethodClassificationDescription": "designed experiment",
  "completeness": {
    "fertiliser": true,
    "soilAmendments": true,
    "pesticidesAntibiotics": true,
    "water": false,
    "electricityFuel": false,
    "products": true,
    "cropResidue": false,
    "excreta": true,
    "other": false,
    "material": false,
    "animalFeed": true,
    "waste": true,
    "liveAnimals": true,
    "transport": true,
    "operations": false,
    "@type": "Completeness"
  },
  "site": {
    "@id": "22eb24watggv",
    "@type": "Site",
    "country": {
      "@type": "Term",
      "termType": "region",
      "name": "United Kingdom",
      "@id": "GADM-GBR"
    }
  },
  "products": [
    {
      "term": {
        "@type": "Term",
        "termType": "crop",
        "name": "Wheat, grain",
        "units": "kg",
        "@id": "wheatGrain"
      },
      "value": [
        4405
      ],
      "sd": [
        1902
      ],
      "min": [
        2690
      ],
      "max": [
        6950
      ],
      "observations": [
        4
      ],
      "statsDefinition": "replications",
      "description": "Plot level yield data provided by author",
      "properties": [
        {
          "term": {
            "@type": "Term",
            "name": "Dry matter",
            "termType": "property",
            "@id": "dryMatter",
            "units": "%"
          },
          "value": 85,
          "@type": "Property"
        }
      ],
      "primary": true,
      "@type": "Product"
    },
    {
      "term": {
        "@type": "Term",
        "termType": "crop",
        "name": "Wheat, straw",
        "units": "kg",
        "@id": "wheatStraw"
      },
      "value": [
        4852
      ],
      "sd": [
        1299
      ],
      "min": [
        3734
      ],
      "max": [
        6368
      ],
      "observations": [
        4
      ],
      "statsDefinition": "replications",
      "description": "Plot level straw yield (assuming 32% plant weight) data provided by author",
      "@type": "Product"
    }
  ],
  "inputs": [
    {
      "term": {
        "@type": "Term",
        "name": "Agricultural limestone",
        "termType": "soilAmendment",
        "@id": "agriculturalLimestone",
        "units": "kg CaCO3"
      },
      "value": [
        1700
      ],
      "description": "granular lime",
      "@type": "Input"
    },
    {
      "term": {
        "@type": "Term",
        "name": "Monocalcium phosphate",
        "termType": "other",
        "@id": "CAS-7758-23-8",
        "units": "kg Ca(H2PO4)2"
      },
      "value": [
        301.93548387096774
      ],
      "description": "Ca(H2PO4)2: 80 kgP/ha x 234/63, applied during same week of sowing",
      "dates": [
        "2016-10-10"
      ],
      "@type": "Input"
    },
    {
      "term": {
        "@type": "Term",
        "name": "Potassium Chloride (kg K2O)",
        "termType": "inorganicFertiliser",
        "@id": "potassiumChlorideKgK2O",
        "units": "kg K2O"
      },
      "value": [
        96.41025641025641
      ],
      "description": "KCI: 80 kgK/ha to kg K2O, x 94/(39+39), applied during same week of sowing",
      "dates": [
        "2016-10-10"
      ],
      "@type": "Input"
    },
    {
      "term": {
        "@type": "Term",
        "name": "Kieserite",
        "termType": "soilAmendment",
        "@id": "kieserite",
        "units": "kg"
      },
      "value": [
        86.95652173913044
      ],
      "description": "MgSO4∙H2O, 100 kg/ha, applied in March",
      "@type": "Input"
    },
    {
      "term": {
        "@type": "Term",
        "termType": "organicFertiliser",
        "name": "Digestate (kg N)",
        "units": "kg N",
        "@id": "digestateKgN"
      },
      "value": [
        0
      ],
      "dates": [
        "2017-03-20"
      ],
      "properties": [
        {
          "term": {
            "@type": "Term",
            "name": "Urease inhibitor used",
            "termType": "property",
            "@id": "ureaseInhibitorUsed",
            "units": "boolean"
          },
          "value": false,
          "@type": "Property"
        }
      ],
      "@type": "Input"
    },
    {
      "term": {
        "@type": "Term",
        "name": "Ammonium Nitrate (kg N)",
        "termType": "inorganicFertiliser",
        "@id": "ammoniumNitrateKgN",
        "units": "kg N"
      },
      "value": [
        300
      ],
      "description": "Applied between March and April 2017",
      "@type": "Input"
    }
  ],
  "cycleDuration": 309,
  "name": "Wheat, grain - Devon (Administrative County), England, United Kingdom - 2017-08-15 - Ammonium nitrate N response pl...",
  "schemaVersion": "18.1.0",
  "dataPrivate": true
}