{
  "@id": "yv6zpatw0ohz",
  "@type": "Cycle",
  "endDate": "2006",
  "functionalUnit": "1 ha",
  "description": "This average crop assumes a plough based tillage system using 220 kg ha-1 of nitrogen fertilizer to yield 8 t ha-1 at 15% moisture. The full inventory sheet is in annex A.",
  "defaultMethodClassification": "consistent external sources",
  "defaultMethodClassificationDescription": "Average plough based UK winter wheat",
  "completeness": {
    "fertiliser": true,
    "soilAmendments": true,
    "pesticidesAntibiotics": true,
    "water": true,
    "electricityFuel": true,
    "products": false,
    "cropResidue": false,
    "excreta": true,
    "other": true,
    "material": true,
    "animalFeed": true,
    "waste": true,
    "liveAnimals": true,
    "transport": true,
    "operations": true,
    "@type": "Completeness"
  },
  "site": {
    "@id": "t__epy88p-fl",
    "@type": "Site",
    "country": {
      "@type": "Term",
      "termType": "region",
      "name": "United Kingdom",
      "@id": "GADM-GBR"
    }
  },
  "products": [
    {
      "term": {
        "@type": "Term",
        "termType": "crop",
        "name": "Wheat, grain",
        "units": "kg",
        "@id": "wheatGrain"
      },
      "value": [
        7800
      ],
      "currency": "GBP",
      "price": 0.08115384615384616,
      "description": "£633 per ha / 7800 kg per ha",
      "properties": [
        {
          "term": {
            "@type": "Term",
            "name": "Dry matter",
            "termType": "property",
            "@id": "dryMatter",
            "units": "%"
          },
          "value": 85,
          "@type": "Property"
        }
      ],
      "primary": true,
      "@type": "Product"
    },
    {
      "term": {
        "@type": "Term",
        "termType": "crop",
        "name": "Wheat, straw",
        "units": "kg",
        "@id": "wheatStraw"
      },
      "value": [
        2584
      ],
      "description": "15% moisture assumed on pg 47",
      "@type": "Product"
    }
  ],
  "inputs": [
    {
      "term": {
        "@type": "Term",
        "name": "Ammonium Nitrate (kg N)",
        "termType": "inorganicFertiliser",
        "@id": "ammoniumNitrateKgN",
        "units": "kg N"
      },
      "value": [
        220
      ],
      "description": "Defra RB209 assumes index 1; page 14 assumes ammonium-nitrate",
      "@type": "Input"
    },
    {
      "term": {
        "@type": "Term",
        "name": "Phosphate Rock (kg P2O5)",
        "termType": "inorganicFertiliser",
        "@id": "phosphateRockKgP2O5",
        "units": "kg P2O5"
      },
      "value": [
        194.65
      ],
      "description": "Defra RB209 assumes index 1; rock phosphate assumed on page 14",
      "@type": "Input"
    },
    {
      "term": {
        "@type": "Term",
        "name": "Inorganic Potassium fertiliser, unspecified (kg K2O)",
        "termType": "inorganicFertiliser",
        "@id": "inorganicPotassiumFertiliserUnspecifiedKgK2O",
        "units": "kg K2O"
      },
      "value": [
        84.357
      ],
      "description": "Defra RB209 assumes index 1",
      "@type": "Input"
    },
    {
      "term": {
        "@type": "Term",
        "name": "Pirimicarb",
        "termType": "pesticideAI",
        "@id": "CAS-23103-98-2",
        "units": "kg active ingredient"
      },
      "value": [
        0.5082
      ],
      "description": "0.42 litres/ha of pirimicarb at desity of 1.21",
      "@type": "Input"
    },
    {
      "term": {
        "@type": "Term",
        "name": "Water, source unspecified",
        "termType": "water",
        "@id": "waterSourceUnspecified",
        "units": "m3"
      },
      "value": [
        2
      ],
      "description": "5 spraying of 400 l/ha",
      "operation": {
        "@type": "Term",
        "name": "Pesticide application, with sprayer",
        "termType": "operation",
        "@id": "pesticideApplicationWithSprayer",
        "units": "hour"
      },
      "@type": "Input"
    },
    {
      "term": {
        "@type": "Term",
        "name": "Diesel",
        "termType": "fuel",
        "@id": "diesel",
        "units": "kg"
      },
      "value": [
        93.8944
      ],
      "description": "diesel in litre summed to 108.8 litres",
      "@type": "Input"
    },
    {
      "term": {
        "@type": "Term",
        "name": "Seed",
        "termType": "other",
        "@id": "seed",
        "units": "kg"
      },
      "value": [
        230
      ],
      "@type": "Input"
    },
    {
      "term": {
        "@type": "Term",
        "name": "Fluroxypyr",
        "termType": "pesticideAI",
        "@id": "CAS-69377-81-7",
        "units": "kg active ingredient"
      },
      "value": [
        0.436
      ],
      "description": "0.4 L/ha at relative desity of 1.09 kg/L",
      "@type": "Input"
    },
    {
      "term": {
        "@type": "Term",
        "name": "Pendimethalin",
        "termType": "pesticideAI",
        "@id": "CAS-40487-42-1",
        "units": "kg active ingredient"
      },
      "value": [
        0.03
      ],
      "description": "Farm Management Handbook 2002/03 & Kovach et al. (1992)",
      "@type": "Input"
    },
    {
      "term": {
        "@type": "Term",
        "name": "Picolinafen",
        "termType": "pesticideAI",
        "@id": "CAS-137641-05-5",
        "units": "kg active ingredient"
      },
      "value": [
        1.31
      ],
      "description": "5",
      "@type": "Input"
    },
    {
      "term": {
        "@type": "Term",
        "name": "Cypermethrin",
        "termType": "pesticideAI",
        "@id": "CAS-52315-07-8",
        "units": "kg active ingredient"
      },
      "value": [
        0.275
      ],
      "description": "0.25 L/ha at relative desity of 1.1",
      "@type": "Input"
    },
    {
      "term": {
        "@type": "Term",
        "name": "Trifloxystrobin Flowable Fungicide",
        "termType": "pesticideBrandName",
        "@id": "trifloxystrobinFlowableFungicide",
        "units": "kg"
      },
      "value": [
        0.68
      ],
      "description": "0.5 L/ha at relative desity of 1.36",
      "@type": "Input"
    },
    {
      "term": {
        "@type": "Term",
        "name": "Triazole",
        "termType": "pesticideAI",
        "@id": "CAS-37306-44-8",
        "units": "kg active ingredient"
      },
      "value": [
        1.439
      ],
      "description": "1 L/ha at relative desity of 1.439",
      "@type": "Input"
    },
    {
      "term": {
        "@type": "Term",
        "name": "Methiocarb",
        "termType": "pesticideAI",
        "@id": "CAS-2032-65-7",
        "units": "kg active ingredient"
      },
      "value": [
        5
      ],
      "description": "Farm Management Handbook 2002/03 & Kovach et al. (1992)",
      "@type": "Input"
    },
    {
      "term": {
        "@type": "Term",
        "name": "Electricity, market mix",
        "termType": "electricity",
        "@id": "electricityMarketMix",
        "units": "kWh"
      },
      "value": [
        138.61
      ],
      "description": "499 MJ/ha, for Harvesting - grain drying/cooling",
      "@type": "Input"
    },
    {
      "term": {
        "@type": "Term",
        "name": "Chlorpyrifos-methyl",
        "termType": "pesticideAI",
        "@id": "CAS-5598-13-0",
        "units": "kg active ingredient"
      },
      "value": [
        0.036
      ],
      "description": "Insecticide for Grain storage",
      "@type": "Input"
    },
    {
      "term": {
        "@type": "Term",
        "name": "Diesel",
        "termType": "fuel",
        "@id": "diesel",
        "units": "kg"
      },
      "value": [
        21.4024
      ],
      "description": "24.8 l/ha for Ploughing (5 furrow)",
      "operation": {
        "@type": "Term",
        "name": "Ploughing, machine unspecified",
        "termType": "operation",
        "@id": "ploughingMachineUnspecified",
        "units": "hour"
      },
      "@type": "Input"
    },
    {
      "term": {
        "@type": "Term",
        "name": "Diesel",
        "termType": "fuel",
        "@id": "diesel",
        "units": "kg"
      },
      "value": [
        24.164
      ],
      "description": "28 l/ha for Power harrow",
      "operation": {
        "@type": "Term",
        "name": "Harrowing, machine unspecified",
        "termType": "operation",
        "@id": "harrowingMachineUnspecified",
        "units": "hour"
      },
      "@type": "Input"
    },
    {
      "term": {
        "@type": "Term",
        "name": "Diesel",
        "termType": "fuel",
        "@id": "diesel",
        "units": "kg"
      },
      "value": [
        7.1629000000000005
      ],
      "description": "8.3 l/ha for drilling",
      "operation": {
        "@type": "Term",
        "name": "Sowing seeds, with seed drill",
        "termType": "operation",
        "@id": "sowingSeedsWithSeedDrill",
        "units": "hour"
      },
      "@type": "Input"
    },
    {
      "term": {
        "@type": "Term",
        "name": "Diesel",
        "termType": "fuel",
        "@id": "diesel",
        "units": "kg"
      },
      "value": [
        9.0615
      ],
      "description": "3 sprays of 1.7 l/ha and 3 sprays of 1.8 l/ha",
      "operation": {
        "@type": "Term",
        "name": "Pesticide application, with sprayer",
        "termType": "operation",
        "@id": "pesticideApplicationWithSprayer",
        "units": "hour"
      },
      "@type": "Input"
    },
    {
      "term": {
        "@type": "Term",
        "name": "Diesel",
        "termType": "fuel",
        "@id": "diesel",
        "units": "kg"
      },
      "value": [
        4.660200000000001
      ],
      "description": "3 top-dressing of 1.8 l/ha",
      "operation": {
        "@type": "Term",
        "name": "Top dressing, machine unspecified",
        "termType": "operation",
        "@id": "topDressingMachineUnspecified",
        "units": "hour"
      },
      "@type": "Input"
    },
    {
      "term": {
        "@type": "Term",
        "name": "Diesel",
        "termType": "fuel",
        "@id": "diesel",
        "units": "kg"
      },
      "value": [
        17.259999999999998
      ],
      "description": "Harvesting - combining",
      "operation": {
        "@type": "Term",
        "name": "Harvesting crops, with combine harvester",
        "termType": "operation",
        "@id": "harvestingCropsWithCombineHarvester",
        "units": "hour"
      },
      "@type": "Input"
    },
    {
      "term": {
        "@type": "Term",
        "name": "Diesel",
        "termType": "fuel",
        "@id": "diesel",
        "units": "kg"
      },
      "value": [
        8.629999999999999
      ],
      "description": "Harvesting - hauling grain",
      "operation": {
        "@type": "Term",
        "name": "Harvesting crops, with puller",
        "termType": "operation",
        "@id": "harvestingCropsWithPuller",
        "units": "hour"
      },
      "@type": "Input"
    },
    {
      "term": {
        "@type": "Term",
        "name": "Diesel",
        "termType": "fuel",
        "@id": "diesel",
        "units": "kg"
      },
      "value": [
        1.5534000000000001
      ],
      "description": "Grain loading",
      "operation": {
        "@type": "Term",
        "name": "Machinery use, operation unspecified",
        "termType": "operation",
        "@id": "machineryUseOperationUnspecified",
        "units": "hour"
      },
      "@type": "Input"
    },
    {
      "term": {
        "@type": "Term",
        "name": "Electricity, market mix",
        "termType": "electricity",
        "@id": "electricityMarketMix",
        "units": "kWh"
      },
      "value": [
        138.6
      ],
      "description": "499 MJ/ha",
      "operation": {
        "@type": "Term",
        "name": "Grain drying, machine unspecified",
        "termType": "operation",
        "@id": "grainDryingMachineUnspecified",
        "units": "hour"
      },
      "@type": "Input"
    }
  ],
  "cycleDuration": 365,
  "name": "Wheat, grain - United Kingdom - 2006 - This average crop assumes a pl...",
  "schemaVersion": "18.1.0",
  "dataPrivate": true
}