{
  "@id": "yz8guxoubmti",
  "@type": "Cycle",
  "endDate": "2004",
  "functionalUnit": "1 ha",
  "description": "Control plot",
  "defaultMethodClassification": "physical measurement",
  "defaultMethodClassificationDescription": "designed experiment",
  "completeness": {
    "fertiliser": false,
    "soilAmendments": false,
    "pesticidesAntibiotics": false,
    "water": false,
    "electricityFuel": false,
    "products": true,
    "cropResidue": false,
    "excreta": true,
    "other": false,
    "material": false,
    "animalFeed": true,
    "waste": true,
    "liveAnimals": true,
    "transport": false,
    "operations": false,
    "@type": "Completeness"
  },
  "site": {
    "@id": "g9hdp_gfcz0s",
    "@type": "Site",
    "country": {
      "@type": "Term",
      "termType": "region",
      "name": "United Kingdom",
      "@id": "GADM-GBR"
    }
  },
  "products": [
    {
      "term": {
        "@type": "Term",
        "termType": "crop",
        "name": "Wheat, grain",
        "units": "kg",
        "@id": "wheatGrain"
      },
      "value": [
        3270
      ],
      "sd": [
        259.8076211353316
      ],
      "statsDefinition": "replications",
      "observations": [
        3
      ],
      "properties": [
        {
          "term": {
            "@type": "Term",
            "name": "Dry matter",
            "termType": "property",
            "@id": "dryMatter",
            "units": "%"
          },
          "value": 85,
          "@type": "Property"
        }
      ],
      "primary": true,
      "@type": "Product"
    },
    {
      "term": {
        "@type": "Term",
        "name": "Nitrogen uptake (whole crop)",
        "termType": "crop",
        "@id": "nitrogenUptakeWholeCrop",
        "units": "kg N"
      },
      "value": [
        49.1
      ],
      "sd": [
        2.39023011444505
      ],
      "statsDefinition": "replications",
      "@type": "Product"
    }
  ],
  "inputs": [
    {
      "term": {
        "@type": "Term",
        "name": "Ammonium Nitrate (kg N)",
        "termType": "inorganicFertiliser",
        "@id": "ammoniumNitrateKgN",
        "units": "kg N"
      },
      "value": [
        40
      ],
      "description": "40 kgN/ha as AN applied in mid February/early March; applied by hand",
      "@type": "Input"
    }
  ],
  "cycleDuration": 365,
  "name": "Wheat, grain - Central Bedfordshire (Unitary Authority), England, United Kingdom - 2004 - Control plot",
  "schemaVersion": "19.0.0",
  "dataPrivate": true
}