{
  "createdAt": "2023-06-21",
  "@id": "ztcfvxlpbumr",
  "@type": "Cycle",
  "endDate": "2010",
  "numberOfCycles": 3,
  "functionalUnit": "1 ha",
  "description": "Represents practices of conventional wheat farmers in the Beauce region of France",
  "defaultMethodClassification": "verified survey data",
  "defaultMethodClassificationDescription": "Data provided by the chamber of agriculture of the Eure et Loire region",
  "completeness": {
    "fertiliser": true,
    "soilAmendments": true,
    "pesticidesAntibiotics": true,
    "water": false,
    "electricityFuel": false,
    "products": true,
    "cropResidue": false,
    "excreta": true,
    "other": true,
    "material": false,
    "animalFeed": true,
    "waste": true,
    "liveAnimals": false,
    "transport": false,
    "operations": false,
    "@type": "Completeness"
  },
  "site": {
    "@id": "qci6pgtvoesi",
    "@type": "Site",
    "country": {
      "@type": "Term",
      "termType": "region",
      "name": "France",
      "@id": "GADM-FRA"
    }
  },
  "products": [
    {
      "term": {
        "@type": "Term",
        "termType": "crop",
        "name": "Wheat, grain",
        "units": "kg",
        "@id": "wheatGrain"
      },
      "value": [
        7500
      ],
      "variety": "Modern varierties",
      "description": "Supplementary data, Production / Arable land, average over 3 years",
      "transport": [
        {
          "term": {
            "@type": "Term",
            "termType": "transport",
            "name": "Freight, tractor and trailer",
            "units": "tkm",
            "@id": "freightTractorAndTrailer"
          },
          "value": 37.5,
          "returnLegIncluded": false,
          "@type": "Transport"
        },
        {
          "term": {
            "@type": "Term",
            "termType": "transport",
            "name": "Freight, lorry, light commercial vehicle",
            "units": "tkm",
            "@id": "freightLorryLightCommercialVehicle"
          },
          "value": 1.8023,
          "description": "van",
          "returnLegIncluded": false,
          "@type": "Transport"
        },
        {
          "term": {
            "@type": "Term",
            "termType": "transport",
            "name": "Freight, lorry",
            "units": "tkm",
            "@id": "freightLorry"
          },
          "value": 65.333,
          "returnLegIncluded": false,
          "@type": "Transport"
        },
        {
          "term": {
            "@type": "Term",
            "termType": "transport",
            "name": "Freight, train unspecified",
            "units": "tkm",
            "@id": "freightTrainUnspecified"
          },
          "value": 65.333,
          "returnLegIncluded": false,
          "@type": "Transport"
        },
        {
          "term": {
            "@type": "Term",
            "termType": "transport",
            "name": "Freight, barge",
            "units": "tkm",
            "@id": "freightBarge"
          },
          "value": 485.57,
          "returnLegIncluded": false,
          "@type": "Transport"
        }
      ],
      "primary": true,
      "@type": "Product"
    }
  ],
  "inputs": [
    {
      "term": {
        "@type": "Term",
        "name": "Inorganic Nitrogen fertiliser, unspecified (kg N)",
        "termType": "inorganicFertiliser",
        "@id": "inorganicNitrogenFertiliserUnspecifiedKgN",
        "units": "kg N"
      },
      "value": [
        190
      ],
      "isAnimalFeed": false,
      "description": "Synthetic fertilisers",
      "@type": "Input"
    },
    {
      "term": {
        "@type": "Term",
        "name": "Inorganic Phosphorus fertiliser, unspecified (kg P2O5)",
        "termType": "inorganicFertiliser",
        "@id": "inorganicPhosphorusFertiliserUnspecifiedKgP2O5",
        "units": "kg P2O5"
      },
      "value": [
        43
      ],
      "description": "Synthetic fertilisers",
      "@type": "Input"
    },
    {
      "term": {
        "@type": "Term",
        "name": "Inorganic Potassium fertiliser, unspecified (kg K2O)",
        "termType": "inorganicFertiliser",
        "@id": "inorganicPotassiumFertiliserUnspecifiedKgK2O",
        "units": "kg K2O"
      },
      "value": [
        40
      ],
      "description": "Synthetic fertilisers",
      "@type": "Input"
    },
    {
      "term": {
        "@type": "Term",
        "name": "Pesticide unspecified (AI)",
        "termType": "pesticideAI",
        "@id": "pesticideUnspecifiedAi",
        "units": "kg active ingredient"
      },
      "value": [
        0.99
      ],
      "description": "av 6.5 applications / yr, value from Supplymentary table",
      "@type": "Input"
    },
    {
      "term": {
        "@type": "Term",
        "name": "Seed",
        "termType": "other",
        "@id": "seed",
        "units": "kg"
      },
      "value": [
        112.5
      ],
      "description": "Supplementary data, Purcahsed seed / Arable land",
      "@type": "Input"
    },
    {
      "term": {
        "@type": "Term",
        "name": "Potassium Chloride (kg K2O)",
        "termType": "inorganicFertiliser",
        "@id": "potassiumChlorideKgK2O",
        "units": "kg K2O"
      },
      "value": [
        43.125
      ],
      "description": "Supplementary data, K2O / Arable land",
      "@type": "Input"
    },
    {
      "term": {
        "@type": "Term",
        "termType": "pesticideAI",
        "name": "Sulfonyl urea compounds, unspecified",
        "units": "kg active ingredient",
        "@id": "sulfonylUreaCompoundsUnspecified"
      },
      "value": [
        2.2575
      ],
      "@type": "Input"
    },
    {
      "term": {
        "@type": "Term",
        "name": "Ammonium Nitrate (kg N)",
        "termType": "inorganicFertiliser",
        "@id": "ammoniumNitrateKgN",
        "units": "kg N"
      },
      "value": [
        114.94
      ],
      "@type": "Input"
    },
    {
      "term": {
        "@type": "Term",
        "name": "NP Blend (kg N)",
        "termType": "inorganicFertiliser",
        "@id": "npBlendKgN",
        "units": "kg N"
      },
      "value": [
        0.5635
      ],
      "description": "Other N-compounds",
      "@type": "Input"
    },
    {
      "term": {
        "@type": "Term",
        "name": "Pyrethrin and pyrethroid compounds, unspecified",
        "termType": "pesticideAI",
        "@id": "pyrethrinAndPyrethroidCompoundsUnspecified",
        "units": "kg active ingredient"
      },
      "value": [
        0.0075
      ],
      "description": "Pyretroid-compounds",
      "@type": "Input"
    },
    {
      "term": {
        "@type": "Term",
        "termType": "pesticideAI",
        "name": "Triazine compounds, unspecified",
        "units": "kg active ingredient",
        "@id": "triazineCompoundsUnspecified"
      },
      "value": [
        0.009
      ],
      "@type": "Input"
    },
    {
      "term": {
        "@type": "Term",
        "name": "Triple Super Phosphate (kg P2O5)",
        "termType": "inorganicFertiliser",
        "@id": "tripleSuperPhosphateKgP2O5",
        "units": "kg P2O5"
      },
      "value": [
        43.125
      ],
      "@type": "Input"
    },
    {
      "term": {
        "@type": "Term",
        "name": "Urea (kg N)",
        "termType": "inorganicFertiliser",
        "@id": "ureaKgN",
        "units": "kg N"
      },
      "value": [
        75.075
      ],
      "@type": "Input"
    }
  ],
  "cycleDuration": 365,
  "name": "Wheat, grain - Beaucé, France - 2010 - Represents practices of conven...",
  "schemaVersion": "21.4.0",
  "dataPrivate": true
}