[
  {
    "@id": "zk2zj1l7oc7-",
    "@type": "Cycle",
    "functionalUnit": "1 ha",
    "description": "192N (Plot 9)",
    "site": {
      "@id": "z9w-4yxmvfhz",
      "@type": "Site"
    },
    "dataPrivate": true,
    "defaultMethodClassification": "modelled",
    "endDate": "1998",
    "completeness": {
      "fertiliser": false,
      "soilAmendments": false,
      "pesticidesAntibiotics": false,
      "water": true,
      "electricityFuel": false,
      "products": false,
      "cropResidue": false,
      "excreta": true,
      "animalFeed": true,
      "other": false,
      "material": false,
      "liveAnimals": true,
      "transport": true,
      "waste": true,
      "@type": "Completeness",
      "operations": true
    },
    "products": [
      {
        "term": {
          "@type": "Term",
          "termType": "crop",
          "name": "Wheat, grain",
          "units": "kg",
          "@id": "wheatGrain"
        },
        "description": "Winter Wheat, grain",
        "value": [
          6287.5
        ],
        "properties": [
          {
            "term": {
              "@type": "Term",
              "name": "Dry matter",
              "termType": "property",
              "@id": "dryMatter",
              "units": "%"
            },
            "value": 100,
            "@type": "Property"
          },
          {
            "term": {
              "@type": "Term",
              "name": "Rooting depth",
              "termType": "property",
              "@id": "rootingDepth",
              "units": "meters"
            },
            "max": 1.7,
            "source": {
              "@id": "3kfjccvqpvzb",
              "@type": "Source"
            },
            "@type": "Property"
          }
        ],
        "variety": "variety 1",
        "primary": true,
        "@type": "Product"
      },
      {
        "term": {
          "@type": "Term",
          "name": "Nitrogen uptake (edible part)",
          "termType": "crop",
          "@id": "nitrogenUptakeEdiblePart",
          "units": "kg N"
        },
        "value": [
          148.8
        ],
        "@type": "Product"
      },
      {
        "term": {
          "@type": "Term",
          "termType": "crop",
          "name": "Wheat, grain",
          "units": "kg",
          "@id": "wheatGrain"
        },
        "value": [
          1000
        ],
        "variety": "variety 3",
        "primary": false,
        "@type": "Product"
      }
    ],
    "inputs": [
      {
        "term": {
          "@type": "Term",
          "name": "Ammonium Nitrate (kg N)",
          "termType": "inorganicFertiliser",
          "@id": "ammoniumNitrateKgN",
          "units": "kg N"
        },
        "value": [
          192
        ],
        "@type": "Input"
      }
    ],
    "cycleDuration": 365,
    "defaultMethodClassificationDescription": "description"
  },
  {
    "@id": "b-q0ahoqmads",
    "@type": "Cycle",
    "functionalUnit": "1 ha",
    "description": "288N (Plot 16)",
    "site": {
      "@id": "6hffwuvvigh_",
      "@type": "Site"
    },
    "dataPrivate": true,
    "defaultMethodClassification": "modelled",
    "endDate": "1998",
    "completeness": {
      "fertiliser": false,
      "soilAmendments": false,
      "pesticidesAntibiotics": false,
      "water": true,
      "electricityFuel": false,
      "products": false,
      "cropResidue": false,
      "excreta": true,
      "animalFeed": true,
      "other": false,
      "material": false,
      "liveAnimals": true,
      "transport": true,
      "waste": true,
      "@type": "Completeness",
      "operations": true
    },
    "products": [
      {
        "term": {
          "@type": "Term",
          "termType": "crop",
          "name": "Wheat, grain",
          "units": "kg",
          "@id": "wheatGrain"
        },
        "description": "Winter Wheat, grain",
        "value": [
          7247.142857142857
        ],
        "properties": [
          {
            "term": {
              "@type": "Term",
              "name": "Dry matter",
              "termType": "property",
              "@id": "dryMatter",
              "units": "%"
            },
            "value": 100,
            "@type": "Property"
          },
          {
            "term": {
              "@type": "Term",
              "name": "Rooting depth",
              "termType": "property",
              "@id": "rootingDepth",
              "units": "meters"
            },
            "max": 1.7,
            "source": {
              "@id": "3kfjccvqpvzb",
              "@type": "Source"
            },
            "@type": "Property"
          }
        ],
        "variety": "variety 1",
        "primary": true,
        "@type": "Product"
      },
      {
        "term": {
          "@type": "Term",
          "name": "Nitrogen uptake (edible part)",
          "termType": "crop",
          "@id": "nitrogenUptakeEdiblePart",
          "units": "kg N"
        },
        "value": [
          197.2
        ],
        "@type": "Product"
      },
      {
        "term": {
          "@type": "Term",
          "termType": "crop",
          "name": "Wheat, grain",
          "units": "kg",
          "@id": "wheatGrain"
        },
        "value": [
          1000
        ],
        "variety": "variety 3",
        "primary": false,
        "@type": "Product"
      }
    ],
    "inputs": [
      {
        "term": {
          "@type": "Term",
          "name": "Ammonium Nitrate (kg N)",
          "termType": "inorganicFertiliser",
          "@id": "ammoniumNitrateKgN",
          "units": "kg N"
        },
        "value": [
          288
        ],
        "@type": "Input"
      },
      {
        "term": {
          "@type": "Term",
          "name": "Water, source unspecified",
          "termType": "water",
          "@id": "waterSourceUnspecified",
          "units": "m3"
        },
        "value": [
          4200
        ],
        "@type": "Input"
      },
      {
        "term": {
          "@type": "Term",
          "name": "Water, irrigation canal",
          "termType": "water",
          "@id": "waterIrrigationCanal",
          "units": "m3"
        },
        "value": [
          200
        ],
        "@type": "Input"
      }
    ],
    "cycleDuration": 365,
    "defaultMethodClassificationDescription": "description"
  },
  {
    "@id": "mo7gcz_yp_tu",
    "@type": "Cycle",
    "functionalUnit": "1 ha",
    "description": "FYM + 96N (Plot 21)",
    "site": {
      "@id": "66lzagoaakuw",
      "@type": "Site"
    },
    "dataPrivate": true,
    "defaultMethodClassification": "modelled",
    "endDate": "1998",
    "completeness": {
      "fertiliser": false,
      "soilAmendments": false,
      "pesticidesAntibiotics": false,
      "water": true,
      "electricityFuel": false,
      "products": false,
      "cropResidue": false,
      "excreta": true,
      "animalFeed": true,
      "other": false,
      "material": false,
      "liveAnimals": true,
      "transport": true,
      "waste": true,
      "@type": "Completeness",
      "operations": true
    },
    "products": [
      {
        "term": {
          "@type": "Term",
          "termType": "crop",
          "name": "Wheat, grain",
          "units": "kg",
          "@id": "wheatGrain"
        },
        "description": "Winter Wheat, grain",
        "value": [
          7254.285714285716
        ],
        "properties": [
          {
            "term": {
              "@type": "Term",
              "name": "Dry matter",
              "termType": "property",
              "@id": "dryMatter",
              "units": "%"
            },
            "value": 100,
            "@type": "Property"
          },
          {
            "term": {
              "@type": "Term",
              "name": "Rooting depth",
              "termType": "property",
              "@id": "rootingDepth",
              "units": "meters"
            },
            "max": 1.7,
            "source": {
              "@id": "3kfjccvqpvzb",
              "@type": "Source"
            },
            "@type": "Property"
          }
        ],
        "variety": "variety 1",
        "primary": true,
        "@type": "Product"
      },
      {
        "term": {
          "@type": "Term",
          "name": "Nitrogen uptake (edible part)",
          "termType": "crop",
          "@id": "nitrogenUptakeEdiblePart",
          "units": "kg N"
        },
        "value": [
          170
        ],
        "@type": "Product"
      },
      {
        "term": {
          "@type": "Term",
          "termType": "crop",
          "name": "Wheat, grain",
          "units": "kg",
          "@id": "wheatGrain"
        },
        "value": [
          1000
        ],
        "variety": "variety 3",
        "primary": false,
        "@type": "Product"
      }
    ],
    "inputs": [
      {
        "term": {
          "@type": "Term",
          "name": "Ammonium Nitrate (kg N)",
          "termType": "inorganicFertiliser",
          "@id": "ammoniumNitrateKgN",
          "units": "kg N"
        },
        "value": [
          96
        ],
        "@type": "Input"
      },
      {
        "term": {
          "@type": "Term",
          "name": "Manure, fresh (kg N)",
          "termType": "organicFertiliser",
          "@id": "manureFreshKgN",
          "units": "kg N"
        },
        "value": [
          265
        ],
        "@type": "Input"
      }
    ],
    "cycleDuration": 365,
    "defaultMethodClassificationDescription": "description"
  },
  {
    "@id": "q7shnqwetcit",
    "@type": "Cycle",
    "functionalUnit": "1 ha",
    "description": "48N (Plot 6)",
    "site": {
      "@id": "z9w-4yxmvfhz",
      "@type": "Site"
    },
    "dataPrivate": true,
    "defaultMethodClassification": "modelled",
    "endDate": "1998",
    "completeness": {
      "fertiliser": false,
      "soilAmendments": false,
      "pesticidesAntibiotics": false,
      "water": true,
      "electricityFuel": false,
      "products": false,
      "cropResidue": false,
      "excreta": true,
      "animalFeed": true,
      "other": false,
      "material": false,
      "liveAnimals": true,
      "transport": true,
      "waste": true,
      "@type": "Completeness",
      "operations": true
    },
    "products": [
      {
        "term": {
          "@type": "Term",
          "termType": "crop",
          "name": "Wheat, grain",
          "units": "kg",
          "@id": "wheatGrain"
        },
        "description": "Winter Wheat, grain",
        "value": [
          3535
        ],
        "properties": [
          {
            "term": {
              "@type": "Term",
              "name": "Dry matter",
              "termType": "property",
              "@id": "dryMatter",
              "units": "%"
            },
            "value": 100,
            "@type": "Property"
          },
          {
            "term": {
              "@type": "Term",
              "name": "Rooting depth",
              "termType": "property",
              "@id": "rootingDepth",
              "units": "meters"
            },
            "max": 1.7,
            "source": {
              "@id": "3kfjccvqpvzb",
              "@type": "Source"
            },
            "@type": "Property"
          }
        ],
        "variety": "variety 1",
        "primary": true,
        "@type": "Product"
      },
      {
        "term": {
          "@type": "Term",
          "name": "Nitrogen uptake (edible part)",
          "termType": "crop",
          "@id": "nitrogenUptakeEdiblePart",
          "units": "kg N"
        },
        "value": [
          50.7
        ],
        "@type": "Product"
      }
    ],
    "inputs": [
      {
        "term": {
          "@type": "Term",
          "name": "Ammonium Nitrate (kg N)",
          "termType": "inorganicFertiliser",
          "@id": "ammoniumNitrateKgN",
          "units": "kg N"
        },
        "value": [
          48
        ],
        "@type": "Input"
      },
      {
        "term": {
          "@type": "Term",
          "name": "Water, irrigation canal",
          "termType": "water",
          "@id": "waterIrrigationCanal",
          "units": "m3"
        },
        "value": [
          1200
        ],
        "@type": "Input"
      }
    ],
    "cycleDuration": 365,
    "defaultMethodClassificationDescription": "description"
  },
  {
    "@id": "wbwvqsn_ou_q",
    "@type": "Cycle",
    "functionalUnit": "1 ha",
    "description": "240N (Plot 15)",
    "site": {
      "@id": "z9w-4yxmvfhz",
      "@type": "Site"
    },
    "dataPrivate": true,
    "defaultMethodClassification": "modelled",
    "endDate": "1998",
    "completeness": {
      "fertiliser": false,
      "soilAmendments": false,
      "pesticidesAntibiotics": false,
      "water": true,
      "electricityFuel": false,
      "products": false,
      "cropResidue": false,
      "excreta": true,
      "animalFeed": true,
      "other": false,
      "material": false,
      "liveAnimals": true,
      "transport": true,
      "waste": true,
      "@type": "Completeness",
      "operations": true
    },
    "products": [
      {
        "term": {
          "@type": "Term",
          "termType": "crop",
          "name": "Wheat, grain",
          "units": "kg",
          "@id": "wheatGrain"
        },
        "description": "Winter Wheat, grain",
        "value": [
          6709.999999999999
        ],
        "properties": [
          {
            "term": {
              "@type": "Term",
              "name": "Dry matter",
              "termType": "property",
              "@id": "dryMatter",
              "units": "%"
            },
            "value": 100,
            "@type": "Property"
          },
          {
            "term": {
              "@type": "Term",
              "name": "Rooting depth",
              "termType": "property",
              "@id": "rootingDepth",
              "units": "meters"
            },
            "max": 1.7,
            "source": {
              "@id": "3kfjccvqpvzb",
              "@type": "Source"
            },
            "@type": "Property"
          }
        ],
        "variety": "variety 1",
        "primary": true,
        "@type": "Product"
      },
      {
        "term": {
          "@type": "Term",
          "name": "Nitrogen uptake (edible part)",
          "termType": "crop",
          "@id": "nitrogenUptakeEdiblePart",
          "units": "kg N"
        },
        "value": [
          175.6
        ],
        "@type": "Product"
      },
      {
        "term": {
          "@type": "Term",
          "termType": "crop",
          "name": "Wheat, grain",
          "units": "kg",
          "@id": "wheatGrain"
        },
        "value": [
          1000
        ],
        "variety": "variety 3",
        "primary": false,
        "@type": "Product"
      }
    ],
    "inputs": [
      {
        "term": {
          "@type": "Term",
          "name": "Ammonium Nitrate (kg N)",
          "termType": "inorganicFertiliser",
          "@id": "ammoniumNitrateKgN",
          "units": "kg N"
        },
        "value": [
          240
        ],
        "@type": "Input"
      }
    ],
    "cycleDuration": 365,
    "defaultMethodClassificationDescription": "description"
  },
  {
    "@id": "bhz-zh4tmsaj",
    "@type": "Cycle",
    "functionalUnit": "1 ha",
    "description": "96N (Plot 7)",
    "site": {
      "@id": "z9w-4yxmvfhz",
      "@type": "Site"
    },
    "dataPrivate": true,
    "defaultMethodClassification": "modelled",
    "endDate": "1998",
    "completeness": {
      "fertiliser": false,
      "soilAmendments": false,
      "pesticidesAntibiotics": false,
      "water": true,
      "electricityFuel": false,
      "products": false,
      "cropResidue": false,
      "excreta": true,
      "animalFeed": true,
      "other": false,
      "material": false,
      "liveAnimals": true,
      "transport": true,
      "waste": true,
      "@type": "Completeness",
      "operations": true
    },
    "products": [
      {
        "term": {
          "@type": "Term",
          "termType": "crop",
          "name": "Wheat, grain",
          "units": "kg",
          "@id": "wheatGrain"
        },
        "description": "Winter Wheat, grain",
        "value": [
          5160.000000000001
        ],
        "properties": [
          {
            "term": {
              "@type": "Term",
              "name": "Dry matter",
              "termType": "property",
              "@id": "dryMatter",
              "units": "%"
            },
            "value": 100,
            "@type": "Property"
          },
          {
            "term": {
              "@type": "Term",
              "name": "Rooting depth",
              "termType": "property",
              "@id": "rootingDepth",
              "units": "meters"
            },
            "max": 1.7,
            "source": {
              "@id": "3kfjccvqpvzb",
              "@type": "Source"
            },
            "@type": "Property"
          }
        ],
        "variety": "variety 1",
        "primary": true,
        "@type": "Product"
      },
      {
        "term": {
          "@type": "Term",
          "name": "Nitrogen uptake (edible part)",
          "termType": "crop",
          "@id": "nitrogenUptakeEdiblePart",
          "units": "kg N"
        },
        "value": [
          79.3
        ],
        "@type": "Product"
      }
    ],
    "inputs": [
      {
        "term": {
          "@type": "Term",
          "name": "Ammonium Nitrate (kg N)",
          "termType": "inorganicFertiliser",
          "@id": "ammoniumNitrateKgN",
          "units": "kg N"
        },
        "value": [
          96
        ],
        "@type": "Input"
      }
    ],
    "cycleDuration": 365,
    "defaultMethodClassificationDescription": "description"
  },
  {
    "@id": "1dzvcw818brh",
    "@type": "Cycle",
    "functionalUnit": "1 ha",
    "description": "144N (Plot 8)",
    "site": {
      "@id": "z9w-4yxmvfhz",
      "@type": "Site"
    },
    "dataPrivate": true,
    "defaultMethodClassification": "modelled",
    "endDate": "1998",
    "completeness": {
      "fertiliser": false,
      "soilAmendments": false,
      "pesticidesAntibiotics": false,
      "water": true,
      "electricityFuel": false,
      "products": false,
      "cropResidue": false,
      "excreta": true,
      "animalFeed": true,
      "other": false,
      "material": false,
      "liveAnimals": true,
      "transport": true,
      "waste": true,
      "@type": "Completeness",
      "operations": true
    },
    "products": [
      {
        "term": {
          "@type": "Term",
          "termType": "crop",
          "name": "Wheat, grain",
          "units": "kg",
          "@id": "wheatGrain"
        },
        "description": "Winter Wheat, grain",
        "value": [
          6321.25
        ],
        "properties": [
          {
            "term": {
              "@type": "Term",
              "name": "Dry matter",
              "termType": "property",
              "@id": "dryMatter",
              "units": "%"
            },
            "value": 100,
            "@type": "Property"
          },
          {
            "term": {
              "@type": "Term",
              "name": "Rooting depth",
              "termType": "property",
              "@id": "rootingDepth",
              "units": "meters"
            },
            "max": 1.7,
            "source": {
              "@id": "3kfjccvqpvzb",
              "@type": "Source"
            },
            "@type": "Property"
          }
        ],
        "variety": "variety 1",
        "primary": true,
        "@type": "Product"
      },
      {
        "term": {
          "@type": "Term",
          "name": "Nitrogen uptake (edible part)",
          "termType": "crop",
          "@id": "nitrogenUptakeEdiblePart",
          "units": "kg N"
        },
        "value": [
          108.9
        ],
        "@type": "Product"
      }
    ],
    "inputs": [
      {
        "term": {
          "@type": "Term",
          "name": "Ammonium Nitrate (kg N)",
          "termType": "inorganicFertiliser",
          "@id": "ammoniumNitrateKgN",
          "units": "kg N"
        },
        "value": [
          114
        ],
        "@type": "Input"
      }
    ],
    "cycleDuration": 365,
    "defaultMethodClassificationDescription": "description"
  },
  {
    "@id": "8alk_tsvft57",
    "@type": "Cycle",
    "functionalUnit": "1 ha",
    "description": "No N (Plot 5)",
    "site": {
      "@id": "z9w-4yxmvfhz",
      "@type": "Site"
    },
    "dataPrivate": true,
    "defaultMethodClassification": "modelled",
    "endDate": "1998",
    "completeness": {
      "fertiliser": false,
      "soilAmendments": false,
      "pesticidesAntibiotics": false,
      "water": true,
      "electricityFuel": false,
      "products": false,
      "cropResidue": false,
      "excreta": true,
      "animalFeed": true,
      "other": false,
      "material": false,
      "liveAnimals": true,
      "transport": true,
      "waste": true,
      "@type": "Completeness",
      "operations": true
    },
    "products": [
      {
        "term": {
          "@type": "Term",
          "termType": "crop",
          "name": "Wheat, grain",
          "units": "kg",
          "@id": "wheatGrain"
        },
        "description": "Winter Wheat, grain",
        "value": [
          1082.5
        ],
        "properties": [
          {
            "term": {
              "@type": "Term",
              "name": "Dry matter",
              "termType": "property",
              "@id": "dryMatter",
              "units": "%"
            },
            "value": 100,
            "@type": "Property"
          },
          {
            "term": {
              "@type": "Term",
              "name": "Rooting depth",
              "termType": "property",
              "@id": "rootingDepth",
              "units": "meters"
            },
            "max": 1.7,
            "source": {
              "@id": "3kfjccvqpvzb",
              "@type": "Source"
            },
            "@type": "Property"
          }
        ],
        "variety": "variety 1",
        "primary": true,
        "@type": "Product"
      },
      {
        "term": {
          "@type": "Term",
          "name": "Nitrogen uptake (edible part)",
          "termType": "crop",
          "@id": "nitrogenUptakeEdiblePart",
          "units": "kg N"
        },
        "value": [
          16.1
        ],
        "@type": "Product"
      }
    ],
    "cycleDuration": 365,
    "defaultMethodClassificationDescription": "description"
  },
  {
    "@id": "pumtm6xfblfn",
    "@type": "Cycle",
    "functionalUnit": "1 ha",
    "description": "No N (Plot 5)",
    "site": {
      "@id": "6hffwuvvigh_",
      "@type": "Site"
    },
    "dataPrivate": true,
    "defaultMethodClassification": "modelled",
    "endDate": "1998",
    "completeness": {
      "fertiliser": false,
      "soilAmendments": false,
      "pesticidesAntibiotics": false,
      "water": true,
      "electricityFuel": false,
      "products": false,
      "cropResidue": false,
      "excreta": true,
      "animalFeed": true,
      "other": false,
      "material": false,
      "liveAnimals": true,
      "transport": true,
      "waste": true,
      "@type": "Completeness",
      "operations": true
    },
    "products": [
      {
        "term": {
          "@type": "Term",
          "termType": "crop",
          "name": "Wheat, grain",
          "units": "kg",
          "@id": "wheatGrain"
        },
        "description": "Winter Wheat, grain",
        "value": [
          1161.4285714285716
        ],
        "properties": [
          {
            "term": {
              "@type": "Term",
              "name": "Dry matter",
              "termType": "property",
              "@id": "dryMatter",
              "units": "%"
            },
            "value": 100,
            "@type": "Property"
          },
          {
            "term": {
              "@type": "Term",
              "name": "Rooting depth",
              "termType": "property",
              "@id": "rootingDepth",
              "units": "meters"
            },
            "max": 1.7,
            "source": {
              "@id": "3kfjccvqpvzb",
              "@type": "Source"
            },
            "@type": "Property"
          }
        ],
        "variety": "variety 1",
        "primary": true,
        "@type": "Product"
      },
      {
        "term": {
          "@type": "Term",
          "name": "Nitrogen uptake (edible part)",
          "termType": "crop",
          "@id": "nitrogenUptakeEdiblePart",
          "units": "kg N"
        },
        "value": [
          17.2
        ],
        "@type": "Product"
      }
    ],
    "cycleDuration": 365,
    "defaultMethodClassificationDescription": "description"
  },
  {
    "@id": "b0qzkxiewbcl",
    "@type": "Cycle",
    "site": {
      "@id": "e05wcqhsnelh",
      "@type": "Site"
    },
    "dataPrivate": true,
    "defaultMethodClassification": "modelled",
    "functionalUnit": "1 ha",
    "endDate": "2007",
    "description": "Winter bread wheat, conventional",
    "completeness": {
      "electricityFuel": false,
      "material": false,
      "fertiliser": true,
      "other": false,
      "pesticidesAntibiotics": false,
      "soilAmendments": true,
      "water": true,
      "products": true,
      "cropResidue": false,
      "excreta": true,
      "animalFeed": true,
      "liveAnimals": true,
      "transport": true,
      "waste": true,
      "@type": "Completeness",
      "operations": true
    },
    "inputs": [
      {
        "term": {
          "@type": "Term",
          "name": "Inorganic Nitrogen fertiliser, unspecified (kg N)",
          "termType": "inorganicFertiliser",
          "@id": "inorganicNitrogenfertiliserUnspecifiedKgN",
          "units": "kg N"
        },
        "value": [
          205.52856732634288
        ],
        "@type": "Input"
      },
      {
        "term": {
          "@type": "Term",
          "name": "Inorganic Phosphorus fertiliser, unspecified (kg P2O5)",
          "termType": "inorganicFertiliser",
          "@id": "inorganicPhosphorusfertiliserUnspecifiedKgP2O5",
          "units": "kg P2O5"
        },
        "@type": "Input"
      },
      {
        "term": {
          "@type": "Term",
          "name": "Inorganic Potassium fertiliser, unspecified (kg K2O)",
          "termType": "inorganicFertiliser",
          "@id": "inorganicPotassiumfertiliserUnspecifiedKgK2O",
          "units": "kg K2O"
        },
        "@type": "Input"
      },
      {
        "term": {
          "@type": "Term",
          "name": "Lime",
          "termType": "soilAmendment",
          "@id": "lime",
          "units": "kg CaCO3"
        },
        "value": [
          1364.6898432174505
        ],
        "@type": "Input"
      },
      {
        "term": {
          "@type": "Term",
          "name": "Dolomitic lime",
          "termType": "soilAmendment",
          "@id": "dolomiticLime",
          "units": "kg CaMg(CO3)2"
        },
        "value": [
          0
        ],
        "@type": "Input"
      }
    ],
    "practices": [
      {
        "term": {
          "@type": "Term",
          "name": "Rainfed",
          "termType": "waterRegime",
          "@id": "rainfed",
          "units": "%"
        },
        "@type": "Practice"
      },
      {
        "term": {
          "@type": "Term",
          "name": "Full tillage",
          "termType": "tillage",
          "@id": "fullTillage",
          "units": "%"
        },
        "@type": "Practice"
      }
    ],
    "products": [
      {
        "term": {
          "@type": "Term",
          "termType": "crop",
          "name": "Wheat, grain",
          "units": "kg",
          "@id": "wheatGrain"
        },
        "value": [
          6731.958762886598
        ],
        "variety": "variety 1",
        "primary": true,
        "economicValueShare": 100,
        "@type": "Product"
      },
      {
        "term": {
          "@type": "Term",
          "termType": "crop",
          "name": "Wheat, grain",
          "units": "kg",
          "@id": "wheatGrain"
        },
        "value": [
          1000
        ],
        "variety": "variety 3",
        "primary": false,
        "@type": "Product"
      }
    ],
    "cycleDuration": 365,
    "defaultMethodClassificationDescription": "description"
  }
]
