{
  "term": {
    "@type": "Term",
    "name": "Compost (kg mass)",
    "termType": "organicFertiliser",
    "@id": "compostKgMass",
    "units": "kg"
  },
  "value": [
    12000
  ],
  "properties": [
    {
      "term": {
        "@type": "Term",
        "name": "Nitrogen content",
        "termType": "property",
        "@id": "nitrogenContent",
        "units": "%"
      },
      "value": 0.7,
      "@type": "Property"
    },
    {
      "term": {
        "@type": "Term",
        "name": "Phosphate content",
        "termType": "property",
        "@id": "phosphateContentAsP2O5",
        "units": "%"
      },
      "value": 0.4,
      "@type": "Property"
    },
    {
      "term": {
        "@type": "Term",
        "name": "Potassium content",
        "termType": "property",
        "@id": "potassiumContentAsK2O",
        "units": "%"
      },
      "value": 0.8,
      "@type": "Property"
    }
  ],
  "@type": "Input"
}
