cycle.id,Grain yield (kg/ha),completeness.products,Nitrogen (kg N),Phosphorus (kg P2O5),Potassium (kg K2O),Magnesium (kg Mg),completeness.fertiliser,pesticideUnspecifiedAi,completeness.pesticidesAntibiotics,waterSourceUnspecified,completeness.water
myssd_w9zmyv,1082,False,-,-,-,-,False,-,False,0,True
yyynddii7ims,7710,False,240,-,-,-,False,-,False,0,True
sqtjr1okpabo,6737,True,235,-,-,-,False,-,False,-,False
u26m_6vozv60,4690,True,180,0,0,0,True,0,True,0,True
zgtqhcjiwjf1,4350,True,160,0,0,0,True,30,True,0,True
6-j9sipsekrg,4790,True,240,0,0,0,True,0,True,0,True
mpbh6rfhskjn,10280,True,180,0,0,0,True,0,True,0,True
tjcchpb3b01s,10360,True,220,0,0,0,True,30,True,0,True
fgnwljnehwrw,5700,True,180,0,0,0,True,0,False,1200,True
